<?xml version="1.0" encoding="UTF-8"?>
<kml xmlns = "http://www.opengis.net/kml/2.2">
   <Document>
      <name>CC20-21-RL_Uplink_MRS1CRREC6982000.kml</name>
      <Folder>
         <Snippet maxLines="2"><![CDATA[Copyright <A href="http://www.satadsl.net">www.satadsl.com</A>]]></Snippet>
         <name>RASCOM-QAF1-MRS1CRRE</name>
         <FileInfo direction="Uplink" org_fn="CC20-21-RL_Uplink_MRS1CRREC6982000.gxt" kml_fn="CC20-21-RL_Uplink_MRS1CRREC6982000.kml" gxt_name="COHeader" format_ver="2" ntc_id="1" adm="USA" sat_name="RASCOM-QAF1" long_nom="2.85" n_diag="1" beam_id="MRS1CRRE" sat_beam_id="RASCOM-QAF1-MRS1CRRE" RefEIRP="50" RefDiameter="60" ></FileInfo>
         <description>Satellite : RASCOM-QAF1-MRS1CRRE, Uplink  </description>
			<Placemark>
				<name>-0.4</name>
                <FileInfo direction="Uplink" org_fn="CC20-21-RL_Uplink_MRS1CRREC6982000.gxt" kml_fn="CC20-21-RL_Uplink_MRS1CRREC6982000.kml" gxt_name="COHeader" format_ver="2" ntc_id="1" adm="USA" sat_name="RASCOM-QAF1" long_nom="2.85" n_diag="1" beam_id="MRS1CRRE" sat_beam_id="RASCOM-QAF1-MRS1CRRE" RefEIRP="50" RefDiameter="60" ></FileInfo>
                <PlacemarkInfo gain="-0.38" p="20.7370;-28.7170" ></PlacemarkInfo>
                <description> Maxpoint of Satellite : RASCOM-QAF1-MRS1CRRE, Uplink at -0.38 dB </description>
				<Point>
					<coordinates>20.7370,-28.7170,0</coordinates>
				</Point>
			</Placemark>
         <Placemark>
               <name>-9.50dbW</name>
               <PlacemarkInfo gain="-9.50" n_point="309" ></PlacemarkInfo>
               <description>Contour -9.50 dB  </description>
               <Polygon>
                  <outerBoundaryIs>
                     <LinearRing>
                     <coordinates>
                        19.5200,-42.6970,0 19.7730,-42.8050,0 21.7110,-43.4220,0 23.6360,-43.8180,0 25.5060,-43.9540,0 27.3100,-43.8680,0 29.0320,-43.5700,0 30.1060,-43.2040,0 30.6270,-43.0170,0 32.1120,-42.2700,0 33.2120,-41.6000,0 33.5210,-41.3990,0 34.8980,-40.4840,0 35.7180,-40.0290,0 36.3300,-39.6580,0 37.8420,-38.9450,0 38.9340,-38.5680,0 39.4510,-38.3530,0 41.1200,-37.8070,0 42.8690,-37.3240,0 43.1890,-37.2360,0 44.6080,-36.7700,0 46.3330,-36.1410,0 46.8320,-35.9090,0 48.0010,-35.3870,0 49.5120,-34.5470,0 49.6060,-34.5050,0 51.2690,-33.6280,0 52.0100,-33.2030,0 53.0050,-32.7570,0 54.8700,-31.9330,0 54.9090,-31.9150,0 56.8290,-31.0960,0 58.0020,-30.6610,0 58.9620,-30.2940,0 61.3370,-29.5420,0 61.6310,-29.4630,0 63.9340,-28.7640,0 66.0880,-28.3340,0 67.0810,-28.0990,0 71.1090,-27.5250,0 73.1290,-27.3910,0 82.6980,-27.5930,0 82.8100,-26.3510,0 82.8170,-26.2800,0 82.9240,-25.0160,0 82.9780,-24.3350,0 83.0370,-23.5720,0 83.1040,-22.6580,0 83.1670,-21.7630,0 83.2070,-21.1720,0 83.2920,-19.8340,0 83.3630,-18.6230,0 83.4230,-17.5100,0 83.4740,-16.5060,0 83.4800,-16.3730,0 80.0320,-15.3320,0 73.1540,-14.0460,0 72.1710,-13.7090,0 69.5230,-12.3240,0 68.2040,-11.0040,0 67.5180,-9.7160,0 67.1380,-8.4460,0 66.9230,-7.1860,0 66.7670,-5.9330,0 66.6210,-4.6840,0 66.4290,-3.4380,0 66.1310,-2.1950,0 65.7740,-0.9550,0 65.3860,0.2820,0 65.0120,1.5180,0 64.6740,2.7510,0 64.3830,3.9850,0 64.1730,5.2210,0 64.0240,6.4590,0 63.9710,6.8840,0 63.8650,7.6990,0 63.7020,8.9440,0 63.5110,10.1910,0 63.2730,11.4430,0 62.9690,12.4870,0 62.8970,12.6960,0 62.2490,13.9440,0 61.4420,15.1920,0 61.3470,15.2970,0 60.1630,16.4260,0 59.3880,17.0310,0 58.4570,17.6450,0 57.3640,18.3100,0 56.2910,18.8450,0 55.3530,19.3310,0 53.6450,20.0270,0 53.3710,20.1610,0 51.4530,20.8930,0 50.6180,21.1930,0 49.6300,21.6140,0 47.9130,22.3790,0 47.9130,22.3800,0 46.4200,23.4520,0 46.2550,23.6250,0 45.3850,24.9240,0 45.2900,25.1260,0 45.0030,26.2640,0 44.8540,27.6390,0 44.8270,27.8970,0 44.8210,29.0450,0 44.8530,30.4810,0 44.8300,31.1950,0 44.7760,31.9410,0 44.5570,33.4240,0 44.4710,33.7260,0 43.9750,34.9170,0 43.6310,35.4920,0 42.8620,36.4120,0 42.4600,36.7750,0 41.0640,37.7300,0 40.7640,37.8780,0 39.4960,38.4180,0 37.8820,39.0050,0 36.9290,39.2730,0 36.2200,39.4850,0 34.5210,39.8640,0 32.8010,40.1610,0 31.0560,40.3620,0 29.2910,40.4640,0 28.7020,40.4790,0 27.5370,40.5180,0 25.8350,40.6240,0 24.2080,40.8620,0 22.6620,41.2910,0 21.4220,41.8880,0 21.2050,41.9830,0 19.7700,42.7930,0 18.6320,43.6000,0 18.3640,43.7780,0 16.9620,44.8980,0 16.4230,45.4270,0 15.5860,46.2870,0 14.7160,47.3760,0 14.2420,48.0560,0 13.3620,49.4620,0 12.9230,50.3010,0 12.1410,51.7040,0 11.5620,52.9150,0 10.8290,54.1360,0 10.0370,55.5640,0 9.0710,56.8170,0 8.2510,57.9870,0 6.2500,59.8490,0 6.1480,59.9650,0 3.7600,61.8350,0 1.0780,63.1290,0 -0.2470,63.4900,0 -1.8490,64.2580,0 -4.8690,64.7720,0 -7.4400,63.8570,0 -7.5330,63.7310,0 -9.6900,62.5730,0 -10.9240,60.2770,0 -11.1540,60.0430,0 -12.3950,57.4610,0 -12.4330,57.2730,0 -13.5060,54.9200,0 -13.5930,54.6020,0 -14.5440,52.4690,0 -14.6490,52.1790,0 -15.5060,50.0470,0 -15.5510,49.9380,0 -16.1860,47.8320,0 -16.2680,47.3140,0 -16.5600,45.8360,0 -16.6480,43.9260,0 -16.6430,43.6980,0 -16.6020,42.0970,0 -16.5470,40.3430,0 -16.6750,39.0010,0 -16.6940,38.6630,0 -17.1060,37.0530,0 -17.4450,36.3890,0 -17.8360,35.5060,0 -18.4390,34.5400,0 -18.7380,34.0100,0 -19.4700,32.8610,0 -19.6450,32.5520,0 -20.4750,31.1350,0 -20.4800,31.1260,0 -21.1420,29.7230,0 -21.4010,29.1580,0 -21.7380,28.3440,0 -22.3170,27.1330,0 -22.3930,26.9940,0 -23.3080,25.6760,0 -23.3780,25.5960,0 -24.6170,24.6750,0 -25.2420,24.4170,0 -25.9630,24.0900,0 -27.3670,23.6410,0 -28.6490,23.2350,0 -28.7880,23.1750,0 -30.1350,22.4020,0 -30.5680,22.0060,0 -31.2590,20.8570,0 -31.3030,20.7420,0 -31.4730,19.4690,0 -31.3550,18.2000,0 -31.0320,16.9380,0 -30.5570,15.6850,0 -29.9290,14.4410,0 -29.5050,13.7560,0 -29.1360,13.2060,0 -28.1360,11.9800,0 -27.6500,11.4740,0 -26.8790,10.7620,0 -26.0420,10.1020,0 -25.2750,9.5520,0 -24.5430,9.1010,0 -23.2980,8.3510,0 -23.1070,8.2500,0 -21.7160,7.4610,0 -21.2520,7.1640,0 -20.3580,6.6240,0 -19.4330,5.9920,0 -19.0280,5.7240,0 -17.7610,4.8320,0 -17.7290,4.8080,0 -16.4560,3.8600,0 -16.2250,3.6810,0 -15.2070,2.8540,0 -14.8340,2.5370,0 -13.9800,1.7850,0 -13.5630,1.3990,0 -12.7740,0.6580,0 -12.3690,0.2650,0 -11.5870,-0.4910,0 -11.1950,-0.8660,0 -10.4170,-1.5930,0 -9.9580,-1.9940,0 -9.2580,-2.5890,0 -8.5380,-3.1210,0 -8.1080,-3.4440,0 -6.9630,-4.1820,0 -6.8360,-4.2460,0 -5.8240,-4.8650,0 -4.8220,-5.3710,0 -4.6870,-5.4820,0 -3.5550,-6.1470,0 -2.4760,-6.4960,0 -2.4210,-6.5990,0 -2.3250,-6.4950,0 -1.2790,-6.1340,0 -0.6100,-5.3550,0 -0.1400,-5.1300,0 0.9900,-4.8140,0 2.1170,-4.9920,0 2.7140,-5.3480,0 3.2450,-5.7630,0 3.8060,-6.4790,0 4.3460,-7.6150,0 4.3830,-7.9570,0 4.4480,-8.7570,0 4.3880,-9.0430,0 3.9990,-9.9040,0 3.2510,-10.7760,0 2.1040,-10.9870,0 0.9620,-10.2960,0 0.6180,-9.9130,0 -0.1700,-9.0640,0 -0.6020,-8.7690,0 -1.3000,-8.0640,0 -2.0910,-8.7760,0 -2.2710,-9.9260,0 -1.8860,-11.0790,0 -1.3580,-11.8960,0 -0.9650,-12.2370,0 -0.2140,-12.6850,0 0.9380,-13.2290,0 1.1030,-13.3960,0 2.0930,-14.2490,0 2.2380,-14.5710,0 2.9730,-15.7570,0 3.2620,-16.1440,0 3.6950,-16.9540,0 4.4520,-18.1650,0 4.4590,-18.1740,0 5.2740,-19.3890,0 5.6880,-19.9700,0 6.1350,-20.6290,0 6.9430,-21.8860,0 6.9600,-21.9170,0 7.6490,-23.1620,0 8.1160,-24.4570,0 8.3690,-25.5710,0 8.4200,-25.7720,0 8.6350,-27.1110,0 8.8070,-28.4750,0 9.0350,-29.8680,0 9.3890,-31.2930,0 9.9210,-32.7530,0 10.3050,-33.6190,0 10.6110,-34.2550,0 11.4840,-35.8030,0 12.1200,-36.7790,0 12.5800,-37.4040,0 13.9920,-39.0440,0 14.0170,-39.0690,0 15.8980,-40.6840,0 16.0860,-40.8180,0 17.8220,-41.8790,0 19.5200,-42.6970,0
                     </coordinates>
                     </LinearRing>
                 </outerBoundaryIs>
               </Polygon>
            </Placemark>
         <Placemark>
               <name>-9.00dbW</name>
               <PlacemarkInfo gain="-9.00" n_point="291" ></PlacemarkInfo>
               <description>Contour -9.00 dB  </description>
               <Polygon>
                  <outerBoundaryIs>
                     <LinearRing>
                     <coordinates>
                        20.7530,-42.7430,0 21.5580,-42.9980,0 23.4580,-43.3810,0 25.3020,-43.5020,0 27.0790,-43.3970,0 28.5860,-43.1160,0 28.7730,-43.0770,0 30.3450,-42.5080,0 31.8250,-41.7710,0 32.2090,-41.5370,0 33.2150,-40.8840,0 34.6040,-40.0030,0 34.6780,-39.9620,0 36.0110,-39.1510,0 37.5090,-38.4710,0 37.5270,-38.4620,0 39.0820,-37.8090,0 40.7410,-37.2740,0 41.3410,-37.1040,0 42.4290,-36.7340,0 44.1400,-36.1710,0 45.1780,-35.7870,0 45.8380,-35.5340,0 47.5040,-34.8010,0 48.1360,-34.4450,0 49.1460,-33.9810,0 50.8360,-33.1510,0 50.8900,-33.1200,0 52.6070,-32.3360,0 53.7370,-31.8280,0 54.4620,-31.5210,0 56.4450,-30.7290,0 56.8460,-30.5770,0 58.5340,-29.9110,0 60.2480,-29.3630,0 60.8520,-29.1430,0 63.4190,-28.3800,0 64.2390,-28.2020,0 66.3810,-27.6470,0 69.6960,-27.1500,0 70.1930,-27.0580,0 82.7330,-27.2250,0 82.7880,-26.6070,0 82.8510,-25.8930,0 82.9530,-24.6550,0 82.9640,-24.5190,0 83.0820,-22.9620,0 83.0890,-22.8820,0 83.1870,-21.4770,0 83.2670,-20.2270,0 83.2730,-20.1390,0 83.3460,-18.9110,0 83.3840,-18.2220,0 83.4080,-17.8000,0 83.4610,-16.7510,0 75.1020,-15.4130,0 73.8850,-15.0830,0 69.9430,-13.6270,0 67.9840,-12.2730,0 66.9970,-10.9690,0 66.4760,-9.6890,0 66.1790,-8.4240,0 65.9970,-7.1680,0 65.8450,-5.9180,0 65.6880,-4.6720,0 65.4730,-3.4290,0 65.1640,-2.1890,0 64.8030,-0.9520,0 64.4250,0.2820,0 64.0690,1.5140,0 63.7690,2.7460,0 63.5240,3.9770,0 63.4110,4.7660,0 63.3410,5.2100,0 63.1720,6.4450,0 63.0510,7.6840,0 62.9450,8.9270,0 62.8060,10.1730,0 62.6110,11.4240,0 62.5380,11.6640,0 62.1800,12.6730,0 61.5820,13.9210,0 61.0340,14.7800,0 60.7350,15.1660,0 59.4970,16.3990,0 59.1620,16.6640,0 57.7370,17.6140,0 57.1580,17.9710,0 55.5000,18.8100,0 55.1530,18.9920,0 53.1700,19.8050,0 52.6790,19.9820,0 51.2600,20.5380,0 49.6000,21.1450,0 49.4250,21.2210,0 47.7100,21.9800,0 47.0850,22.3400,0 46.1870,22.9890,0 45.6130,23.5940,0 44.9860,24.5390,0 44.8310,24.8950,0 44.5130,26.2380,0 44.4040,27.1510,0 44.3750,27.6120,0 44.3700,29.0180,0 44.4030,30.4540,0 44.4000,30.5300,0 44.2810,31.9090,0 44.0900,33.1820,0 44.0340,33.3890,0 43.4120,34.8790,0 43.3090,35.0480,0 42.2000,36.3660,0 42.1780,36.3860,0 40.7660,37.3090,0 39.7590,37.8090,0 39.2340,38.0350,0 37.6070,38.5850,0 35.9450,39.0430,0 35.2740,39.1660,0 34.2360,39.3790,0 32.5060,39.6290,0 30.7600,39.7880,0 29.0040,39.8630,0 27.2680,39.9100,0 25.5880,40.0190,0 24.1540,40.2580,0 23.9890,40.2850,0 22.4640,40.7310,0 21.0170,41.4190,0 20.3250,41.8460,0 19.6000,42.2530,0 18.1960,43.2090,0 17.7500,43.5700,0 16.7980,44.3090,0 15.6700,45.4050,0 15.4220,45.6570,0 14.0640,47.3290,0 14.0430,47.3590,0 12.7220,49.4300,0 12.7110,49.4470,0 11.4260,51.6890,0 11.3360,51.8700,0 9.9370,54.1210,0 9.8020,54.3540,0 8.0320,56.5890,0 7.7970,56.8020,0 6.0000,58.5240,0 3.8470,59.8470,0 3.7040,59.9550,0 1.1990,61.1450,0 -1.4400,61.7900,0 -4.0690,61.8550,0 -6.4730,61.1520,0 -7.8470,60.1270,0 -8.5260,59.7740,0 -10.2790,58.0420,0 -10.7340,57.1830,0 -11.6990,55.8870,0 -12.3610,54.5360,0 -12.9220,53.5950,0 -13.6250,52.1230,0 -14.0190,51.2630,0 -14.6110,49.8860,0 -14.9570,48.7560,0 -15.2760,47.7830,0 -15.6510,45.7880,0 -15.6510,45.7870,0 -15.8130,43.8830,0 -15.8270,42.0590,0 -15.8480,41.4950,0 -15.8600,40.3100,0 -16.0630,38.6340,0 -16.3130,37.8650,0 -16.5380,37.0270,0 -17.2320,35.6960,0 -17.3280,35.4830,0 -18.2710,33.9890,0 -18.2710,33.9890,0 -19.1870,32.5320,0 -19.3110,32.3390,0 -20.0150,31.1060,0 -20.3070,30.5710,0 -20.7200,29.7050,0 -21.2370,28.5910,0 -21.3470,28.3280,0 -21.9540,26.9760,0 -22.1650,26.5860,0 -22.7940,25.6550,0 -23.2520,25.1360,0 -24.3420,24.3820,0 -24.5050,24.2750,0 -25.8430,23.6730,0 -27.2380,23.2120,0 -27.3320,23.1820,0 -28.6150,22.6170,0 -29.6440,21.9690,0 -29.9150,21.7020,0 -30.5710,20.7140,0 -30.8830,19.6000,0 -30.9070,19.4480,0 -30.8520,18.1830,0 -30.5760,16.9230,0 -30.1300,15.6730,0 -29.7190,14.8430,0 -29.5030,14.4300,0 -28.6740,13.1950,0 -27.7320,12.0270,0 -27.6810,11.9710,0 -26.3660,10.7530,0 -26.0950,10.5390,0 -24.7110,9.5430,0 -24.5800,9.4620,0 -23.1370,8.5950,0 -22.7390,8.3440,0 -21.7400,7.7790,0 -20.7720,7.1600,0 -20.3760,6.9200,0 -19.0420,6.0090,0 -19.0140,5.9890,0 -17.7410,5.1190,0 -17.3390,4.8300,0 -16.4650,4.1800,0 -15.8240,3.6790,0 -15.2130,3.1830,0 -14.4530,2.5360,0 -13.9840,2.1230,0 -13.2030,1.3990,0 -12.7760,0.9980,0 -12.0230,0.2650,0 -11.5870,-0.1560,0 -10.8450,-0.8650,0 -10.4140,-1.2670,0 -9.5860,-1.9930,0 -9.2550,-2.2750,0 -8.1120,-3.1200,0 -8.1040,-3.1260,0 -6.9580,-3.8240,0 -6.1260,-4.2430,0 -5.8170,-4.4320,0 -4.6800,-4.9410,0 -3.5430,-5.2700,0 -2.4060,-5.3060,0 -1.2700,-4.9850,0 -0.1370,-4.4730,0 0.9920,-4.2550,0 2.1180,-4.4960,0 3.2450,-5.1700,0 3.4280,-5.3470,0 4.3150,-6.4780,0 4.3770,-6.6070,0 4.7620,-7.6150,0 4.8930,-8.7560,0 4.6880,-9.9040,0 4.3960,-10.5860,0 3.9960,-11.0580,0 3.2530,-12.0820,0 3.0400,-12.2210,0 2.7240,-13.3910,0 3.0480,-14.5680,0 3.2590,-14.9630,0 3.5290,-15.7550,0 4.1270,-16.9540,0 4.4520,-17.4730,0 4.8220,-18.1640,0 5.5930,-19.3890,0 5.6780,-19.5090,0 6.4410,-20.6290,0 6.9430,-21.4120,0 7.2460,-21.8870,0 7.9160,-23.1630,0 8.3010,-24.2610,0 8.3770,-24.4580,0 8.7090,-25.7740,0 8.9250,-27.1130,0 9.1070,-28.4770,0 9.3450,-29.8700,0 9.7060,-31.2950,0 10.2140,-32.6860,0 10.2420,-32.7570,0 10.9660,-34.2590,0 11.8440,-35.8080,0 12.0260,-36.0850,0 13.0040,-37.4110,0 13.8820,-38.4280,0 14.5320,-39.0800,0 15.7780,-40.1470,0 16.7500,-40.8360,0 17.6970,-41.4120,0 19.6290,-42.3450,0 20.7530,-42.7430,0
                     </coordinates>
                     </LinearRing>
                 </outerBoundaryIs>
               </Polygon>
            </Placemark>
         <Placemark>
               <name>-7.00dbW</name>
               <PlacemarkInfo gain="-7.00" n_point="275" ></PlacemarkInfo>
               <description>Contour -7.00 dB  </description>
               <Polygon>
                  <outerBoundaryIs>
                     <LinearRing>
                     <coordinates>
                        20.3910,-40.9530,0 20.9250,-41.1370,0 22.7440,-41.5180,0 24.4960,-41.5930,0 26.1810,-41.4380,0 27.0570,-41.2450,0 27.7830,-41.0560,0 29.2790,-40.4380,0 30.6570,-39.7190,0 30.7080,-39.6870,0 32.0450,-38.7600,0 32.9350,-38.1840,0 33.3820,-37.8430,0 34.7440,-36.9710,0 35.2710,-36.7070,0 36.1490,-36.1680,0 37.6270,-35.4760,0 38.0730,-35.3050,0 39.1430,-34.8160,0 40.7370,-34.2430,0 41.5090,-33.9850,0 42.3760,-33.6870,0 44.0410,-33.1110,0 45.1810,-32.7180,0 45.7510,-32.5340,0 47.4830,-31.9130,0 48.6870,-31.4700,0 49.2580,-31.2690,0 51.0650,-30.5760,0 51.9380,-30.2290,0 52.9080,-29.8270,0 54.8400,-29.0700,0 55.0310,-28.9970,0 56.8110,-28.2270,0 58.0280,-27.7730,0 58.9140,-27.3760,0 61.1490,-26.5670,0 61.2140,-26.5380,0 63.6660,-25.6160,0 64.5220,-25.3860,0 66.4420,-24.6840,0 68.2210,-24.2270,0 69.6090,-23.6620,0 71.5690,-23.0460,0 72.8080,-22.1810,0 73.4510,-21.7770,0 73.1900,-20.3950,0 71.3750,-18.9510,0 68.8440,-17.5000,0 66.4770,-16.0850,0 64.7060,-14.7210,0 63.5710,-13.4000,0 62.9820,-12.1120,0 62.7160,-10.8450,0 62.5900,-9.5900,0 62.5210,-8.3420,0 62.4490,-7.1000,0 62.3220,-5.8620,0 62.1280,-4.6270,0 61.8220,-3.3940,0 61.4190,-2.1650,0 60.9680,-0.9400,0 60.5510,0.2820,0 60.2050,1.5020,0 59.9840,2.7220,0 59.9730,2.7980,0 59.8030,3.9420,0 59.7810,5.1650,0 59.8390,6.3930,0 59.9080,7.6250,0 59.9480,8.8610,0 59.9140,10.1010,0 59.7850,11.3440,0 59.6210,12.0350,0 59.4480,12.5880,0 58.8150,13.8270,0 58.1360,14.8320,0 57.9400,15.0620,0 56.5900,16.2840,0 56.3170,16.4770,0 54.6020,17.4830,0 54.3860,17.5970,0 52.4380,18.4260,0 51.8390,18.6520,0 50.5370,19.1180,0 48.7080,19.7600,0 48.5880,19.8010,0 46.9550,20.3880,0 45.7220,20.9710,0 45.3430,21.1810,0 44.0390,22.2000,0 43.9340,22.3130,0 43.1760,23.4780,0 42.9140,24.2090,0 42.7530,24.7920,0 42.5810,26.1380,0 42.5550,27.3180,0 42.5450,27.5130,0 42.4850,28.9110,0 42.4470,30.3370,0 42.4250,30.5670,0 42.1890,31.7790,0 41.8660,32.8920,0 41.6980,33.2390,0 40.8770,34.4630,0 40.6500,34.6970,0 39.5940,35.5460,0 38.5750,36.1250,0 38.1360,36.3280,0 36.5370,36.8450,0 34.8860,37.2300,0 33.5200,37.4150,0 33.1800,37.4600,0 31.4400,37.5550,0 29.7040,37.5820,0 27.9860,37.5660,0 26.3110,37.5700,0 24.6970,37.6650,0 23.1560,37.9160,0 21.6980,38.4010,0 21.5530,38.4740,0 20.2880,39.0620,0 18.9130,39.8940,0 18.6870,40.0500,0 17.5310,40.7780,0 16.2940,41.7150,0 16.1600,41.8120,0 14.7750,42.9430,0 14.2330,43.4710,0 13.3950,44.3090,0 12.5550,45.3290,0 12.0200,46.0170,0 11.1230,47.2970,0 10.6170,48.0550,0 9.6940,49.3920,0 9.1160,50.2000,0 7.9360,51.6380,0 7.4560,52.1980,0 5.6060,53.8390,0 5.2200,54.0800,0 3.5870,55.0320,0 1.4520,55.7670,0 -0.7300,56.0530,0 -2.8800,55.8880,0 -4.9150,55.2380,0 -6.6400,54.2840,0 -6.7890,54.1960,0 -8.4600,52.7570,0 -9.2080,51.9140,0 -9.9230,50.9690,0 -10.7260,49.6980,0 -11.1450,48.7430,0 -11.6020,47.6050,0 -12.0750,45.8660,0 -12.1400,45.6200,0 -12.4350,43.7270,0 -12.6630,42.0360,0 -12.6770,41.9180,0 -12.9140,40.1820,0 -13.3380,38.5770,0 -13.3510,38.5200,0 -14.0000,36.9210,0 -14.3230,36.3870,0 -14.8950,35.3820,0 -15.4070,34.6870,0 -15.9540,33.8920,0 -16.5130,33.1570,0 -17.0180,32.4420,0 -17.6010,31.6260,0 -17.9960,31.0220,0 -18.6460,29.9750,0 -18.8330,29.6280,0 -19.5120,28.2550,0 -19.6100,28.0420,0 -20.0840,26.9040,0 -20.5380,25.9620,0 -20.7300,25.5780,0 -21.5790,24.3140,0 -21.6080,24.2800,0 -22.7620,23.2330,0 -23.1090,23.0230,0 -24.0280,22.4550,0 -25.3470,21.8350,0 -25.4050,21.8090,0 -26.6460,21.0790,0 -27.3110,20.5930,0 -27.8670,19.9590,0 -28.2440,19.3550,0 -28.5560,18.1070,0 -28.5120,16.8600,0 -28.1620,15.6180,0 -27.5350,14.3800,0 -26.6810,13.1510,0 -26.4150,12.8480,0 -25.5310,11.9280,0 -24.7900,11.2920,0 -24.0850,10.7140,0 -23.2890,10.1600,0 -22.3670,9.5110,0 -21.8550,9.1920,0 -20.5680,8.3200,0 -20.4670,8.2570,0 -19.1170,7.3440,0 -18.8310,7.1430,0 -17.8000,6.4360,0 -17.1580,5.9770,0 -16.5130,5.5260,0 -15.5570,4.8210,0 -15.2500,4.5870,0 -14.1180,3.6750,0 -14.0100,3.5840,0 -12.8330,2.5340,0 -12.7910,2.4950,0 -11.6480,1.3990,0 -11.5910,1.3440,0 -10.4900,0.2670,0 -10.4110,0.1910,0 -9.2450,-0.8440,0 -9.2220,-0.8610,0 -8.0900,-1.6670,0 -7.5490,-1.9870,0 -6.9420,-2.3280,0 -5.7990,-2.7940,0 -4.6590,-3.0800,0 -4.0900,-3.1060,0 -3.5220,-3.1330,0 -3.2600,-3.1030,0 -2.3880,-3.0010,0 -1.2570,-2.7330,0 -0.1290,-2.4760,0 0.9960,-2.4280,0 2.1200,-2.6610,0 2.9720,-3.0910,0 3.2430,-3.2250,0 4.3700,-4.1480,0 4.4330,-4.2160,0 5.3240,-5.3450,0 5.5040,-5.6510,0 5.9520,-6.4780,0 6.3430,-7.6140,0 6.5400,-8.7560,0 6.5350,-9.9030,0 6.3170,-11.0570,0 5.9390,-12.2180,0 5.5860,-13.3870,0 5.5760,-13.4560,0 5.4200,-14.5650,0 5.5140,-15.7530,0 5.6160,-16.1150,0 5.8410,-16.9520,0 6.3720,-18.1640,0 6.8720,-19.0870,0 7.0390,-19.3910,0 7.7980,-20.6320,0 8.1630,-21.2660,0 8.5360,-21.8910,0 9.1500,-23.1680,0 9.5750,-24.4650,0 9.5750,-24.4650,0 9.9090,-25.7820,0 10.1520,-27.1220,0 10.3790,-28.4870,0 10.6680,-29.8820,0 11.0780,-31.3090,0 11.5980,-32.6220,0 11.6650,-32.7730,0 12.4790,-34.2790,0 13.4490,-35.8000,0 13.4740,-35.8340,0 14.8750,-37.4470,0 15.3060,-37.8740,0 16.8360,-39.1360,0 17.1860,-39.3820,0 19.0600,-40.4230,0 20.3910,-40.9530,0
                     </coordinates>
                     </LinearRing>
                 </outerBoundaryIs>
               </Polygon>
            </Placemark>
         <Placemark>
               <name>-5.00dbW</name>
               <PlacemarkInfo gain="-5.00" n_point="265" ></PlacemarkInfo>
               <description>Contour -5.00 dB  </description>
               <Polygon>
                  <outerBoundaryIs>
                     <LinearRing>
                     <coordinates>
                        21.4670,-39.2850,0 22.0190,-39.4120,0 23.6900,-39.4690,0 24.3190,-39.4010,0 25.2910,-39.2670,0 26.7970,-38.7950,0 28.2280,-38.1370,0 28.5620,-37.9450,0 29.5570,-37.2530,0 30.6520,-36.4460,0 30.8390,-36.2730,0 32.0780,-35.2080,0 32.4030,-34.9750,0 33.3200,-34.1530,0 34.2240,-33.5490,0 34.6200,-33.2180,0 35.9940,-32.4180,0 36.5740,-32.1870,0 37.4670,-31.7890,0 39.0380,-31.3020,0 40.5930,-30.9540,0 40.7050,-30.9280,0 42.3960,-30.5180,0 44.1530,-30.1350,0 45.4950,-29.8080,0 45.9340,-29.6960,0 47.7050,-29.1470,0 49.3140,-28.6210,0 49.5120,-28.5500,0 51.2850,-27.8000,0 52.2530,-27.3960,0 53.0900,-26.9820,0 54.8050,-26.1610,0 54.9310,-26.0850,0 56.7600,-25.0360,0 56.9990,-24.9150,0 58.5830,-23.8220,0 58.8640,-23.6590,0 60.2440,-22.3850,0 60.2870,-22.2930,0 60.9790,-21.0850,0 61.0730,-19.7630,0 60.8520,-19.1450,0 60.6040,-18.4280,0 59.8890,-17.0990,0 59.2020,-15.7860,0 58.6940,-14.4940,0 58.4380,-13.2240,0 58.4210,-11.9710,0 58.5510,-10.7290,0 58.6970,-9.6840,0 58.7070,-9.4940,0 58.7210,-8.2600,0 58.6760,-7.0300,0 58.5070,-5.8030,0 58.2010,-4.5780,0 57.7680,-3.3570,0 57.2210,-2.1400,0 57.1700,-2.0290,0 56.5420,-0.9260,0 55.9770,0.2820,0 55.6190,1.4890,0 55.4960,2.6950,0 55.5990,3.9040,0 55.8690,5.1180,0 56.2040,6.3380,0 56.5240,7.5630,0 56.7560,8.7930,0 56.8480,10.0260,0 56.7970,11.2630,0 56.7130,11.6190,0 56.4250,12.4960,0 55.7790,13.7260,0 55.2980,14.3650,0 54.7220,14.9470,0 53.5490,15.8710,0 53.0900,16.1510,0 51.6820,16.8260,0 50.4820,17.3190,0 49.8260,17.5590,0 47.9980,18.1420,0 46.9940,18.4540,0 46.2350,18.6860,0 44.5500,19.2530,0 43.7550,19.6020,0 42.9920,20.0020,0 41.9530,20.8120,0 41.6400,21.1730,0 41.0760,22.0710,0 40.7210,23.3430,0 40.7160,23.3660,0 40.5090,24.6850,0 40.4660,26.0320,0 40.4640,26.8430,0 40.4390,27.4020,0 40.3390,28.7930,0 40.2140,30.0220,0 40.1730,30.2060,0 39.6730,31.6300,0 39.4510,32.0650,0 38.6880,33.0550,0 38.3280,33.4100,0 36.9680,34.3040,0 36.6250,34.4500,0 35.4400,34.8600,0 33.8270,35.2080,0 32.1540,35.3730,0 30.4530,35.3990,0 28.7490,35.3290,0 27.0710,35.2240,0 25.4350,35.1400,0 23.8630,35.1590,0 22.5470,35.3180,0 22.3590,35.3380,0 20.9120,35.6790,0 19.5290,36.2580,0 18.6510,36.7590,0 18.1780,37.0060,0 16.8250,37.8080,0 16.0890,38.3040,0 15.4710,38.6960,0 14.1090,39.6790,0 13.8070,39.9200,0 12.7330,40.7560,0 11.8480,41.6150,0 11.3570,42.1000,0 10.2650,43.3970,0 9.9690,43.7640,0 8.8570,45.2710,0 8.5350,45.7070,0 7.3740,47.2510,0 7.0020,47.7100,0 5.4500,49.3580,0 5.3270,49.4670,0 3.5100,50.6510,0 1.6020,51.4070,0 -0.3370,51.6370,0 -2.2430,51.3850,0 -4.0470,50.6080,0 -5.6930,49.5130,0 -5.7260,49.4810,0 -7.1640,47.5830,0 -7.2540,47.4390,0 -8.0620,45.4640,0 -8.2870,44.7000,0 -8.5620,43.5800,0 -8.9110,41.7780,0 -9.1210,40.8820,0 -9.2950,40.0510,0 -9.8460,38.3940,0 -10.0780,37.9380,0 -10.6270,36.8000,0 -11.1930,35.9940,0 -11.6800,35.2650,0 -12.3530,34.4430,0 -12.8740,33.7790,0 -13.5160,33.0260,0 -14.0930,32.3330,0 -14.6710,31.6640,0 -15.2780,30.9210,0 -15.7970,30.2500,0 -16.2840,29.5330,0 -16.8610,28.6210,0 -17.1080,28.1670,0 -17.7880,26.8220,0 -17.8490,26.6910,0 -18.3400,25.4950,0 -18.7960,24.5730,0 -18.9900,24.1920,0 -19.8580,22.9750,0 -19.9070,22.9160,0 -21.0210,21.8400,0 -21.2550,21.6690,0 -22.2450,20.9620,0 -23.1060,20.4530,0 -23.4980,20.1700,0 -24.7340,19.2410,0 -24.7340,19.2410,0 -25.5900,18.0160,0 -25.7720,17.3000,0 -25.8550,16.7840,0 -25.6780,15.5520,0 -25.2890,14.7000,0 -25.1070,14.3230,0 -24.1800,13.0980,0 -23.5610,12.4640,0 -22.9760,11.8820,0 -22.0460,11.1170,0 -21.5140,10.6750,0 -20.6140,10.0210,0 -19.9090,9.4790,0 -19.2320,9.0040,0 -18.2530,8.2960,0 -17.8930,8.0480,0 -16.5870,7.1250,0 -16.5870,7.1240,0 -15.3110,6.2410,0 -14.9280,5.9640,0 -14.0590,5.3380,0 -13.3780,4.8130,0 -12.8280,4.3630,0 -12.0250,3.6690,0 -11.6150,3.2900,0 -10.8180,2.5320,0 -10.4220,2.1430,0 -9.6160,1.3990,0 -9.2460,1.0660,0 -8.2340,0.2700,0 -8.0840,0.1600,0 -6.9330,-0.4920,0 -6.0110,-0.8550,0 -5.7880,-0.9340,0 -4.6480,-1.1180,0 -3.5120,-1.0820,0 -2.3800,-0.8710,0 -2.2900,-0.8490,0 -1.2520,-0.5240,0 -0.1260,-0.2290,0 0.9980,-0.1420,0 2.1210,-0.3270,0 3.2420,-0.8420,0 3.2430,-0.8420,0 4.3660,-1.5850,0 4.7640,-1.9650,0 5.4920,-2.6910,0 5.8210,-3.0890,0 6.6140,-4.2150,0 6.6260,-4.2340,0 7.2750,-5.3450,0 7.7400,-6.4780,0 7.7790,-6.6080,0 8.1390,-7.6150,0 8.3660,-8.7580,0 8.4310,-9.9050,0 8.3240,-11.0590,0 8.0490,-12.2200,0 7.8890,-12.8250,0 7.7580,-13.3890,0 7.5720,-14.5670,0 7.5770,-15.7550,0 7.7860,-16.9550,0 8.0260,-17.6420,0 8.2290,-18.1680,0 8.8480,-19.3960,0 9.3450,-20.3380,0 9.5130,-20.6400,0 10.1900,-21.9010,0 10.6860,-23.1790,0 10.7720,-23.4730,0 11.0880,-24.4760,0 11.3810,-25.7940,0 11.6270,-27.1360,0 11.8780,-28.5030,0 12.2130,-29.8990,0 12.6740,-31.3290,0 12.8940,-31.8320,0 13.3780,-32.7980,0 14.3090,-34.3100,0 14.7720,-34.9370,0 15.5950,-35.8760,0 16.6210,-36.8560,0 17.4860,-37.5120,0 18.4510,-38.1300,0 20.2590,-38.9610,0 21.4670,-39.2850,0
                     </coordinates>
                     </LinearRing>
                 </outerBoundaryIs>
               </Polygon>
            </Placemark>
         <Placemark>
               <name>-3.00dbW</name>
               <PlacemarkInfo gain="-3.00" n_point="17" ></PlacemarkInfo>
               <description>Contour -3.00 dB  </description>
               <Polygon>
                  <outerBoundaryIs>
                     <LinearRing>
                     <coordinates>
                        6.6710,8.1900,0 7.7920,7.6210,0 8.9350,7.6240,0 10.0810,8.1970,0 10.1140,9.3430,0 9.7630,10.4930,0 9.3110,11.6490,0 9.0370,12.2300,0 8.4700,12.8120,0 7.9170,13.9720,0 7.3070,12.8080,0 6.7130,11.6420,0 6.7070,11.6300,0 6.4020,10.4840,0 6.6730,9.3450,0 6.6790,9.3340,0 6.6710,8.1900,0
                     </coordinates>
                     </LinearRing>
                 </outerBoundaryIs>
               </Polygon>
            </Placemark>
         <Placemark>
               <name>-3.00dbW</name>
               <PlacemarkInfo gain="-3.00" n_point="59" ></PlacemarkInfo>
               <description>Contour -3.00 dB  </description>
               <Polygon>
                  <outerBoundaryIs>
                     <LinearRing>
                     <coordinates>
                        26.6120,4.8550,0 26.8620,4.6280,0 28.1350,3.7210,0 29.4650,3.7260,0 30.8460,4.3060,0 31.4270,4.8860,0 32.3360,6.0500,0 32.3390,6.0610,0 32.5250,7.2130,0 32.6150,8.3800,0 32.6020,8.9640,0 32.5660,9.5500,0 32.4560,10.7250,0 32.3030,11.9060,0 32.0600,13.0930,0 31.8190,13.6860,0 31.4770,14.2790,0 30.6310,15.0960,0 30.2230,15.4590,0 29.3670,15.9250,0 28.2970,16.6310,0 28.1140,16.7140,0 26.8560,17.3950,0 26.2440,17.8080,0 25.6220,18.1450,0 24.4050,18.9390,0 24.3190,18.9990,0 23.1920,19.7090,0 22.4730,20.2040,0 21.9920,20.5210,0 20.7850,21.2690,0 20.4320,21.4200,0 19.5470,21.7750,0 18.2690,21.9550,0 16.9290,21.5370,0 16.6530,21.3530,0 16.4090,20.0960,0 16.7050,19.4800,0 16.9220,18.8660,0 17.7760,17.6560,0 17.7780,17.6540,0 18.6590,16.4550,0 18.8760,16.1140,0 19.3620,15.2640,0 19.9330,14.0820,0 19.9340,14.0800,0 20.1070,12.9010,0 20.2680,11.7290,0 20.4770,10.5660,0 20.5640,9.4080,0 20.7870,9.0240,0 21.3580,8.2610,0 21.9560,7.8820,0 23.1610,7.1270,0 23.1640,7.1250,0 24.3860,6.4780,0 25.1240,5.9920,0 25.6160,5.6130,0 26.6120,4.8550,0
                     </coordinates>
                     </LinearRing>
                 </outerBoundaryIs>
               </Polygon>
            </Placemark>
         <Placemark>
               <name>-3.00dbW</name>
               <PlacemarkInfo gain="-3.00" n_point="73" ></PlacemarkInfo>
               <description>Contour -3.00 dB  </description>
               <Polygon>
                  <outerBoundaryIs>
                     <LinearRing>
                     <coordinates>
                        25.8170,-20.9010,0 26.1590,-21.1330,0 27.7240,-21.9080,0 29.1690,-21.9520,0 29.9170,-21.0180,0 30.2570,-20.3960,0 30.4790,-19.7730,0 30.9330,-18.5370,0 31.1660,-17.9240,0 31.4540,-17.3160,0 32.2920,-16.3170,0 32.4960,-16.1180,0 33.5560,-15.2760,0 33.9130,-14.9390,0 34.8390,-14.2060,0 35.1650,-13.7610,0 35.7970,-12.5750,0 35.8450,-11.3820,0 34.1880,-10.1690,0 32.7390,-10.1440,0 31.4730,-11.2970,0 31.4690,-11.3030,0 30.9260,-12.4720,0 30.4040,-13.6530,0 30.4000,-13.6590,0 29.1950,-14.8280,0 29.1890,-14.8310,0 29.1750,-14.8270,0 27.7540,-14.3970,0 26.9700,-13.5860,0 26.8240,-12.3970,0 27.4010,-11.6200,0 27.8040,-11.2350,0 28.6160,-10.4650,0 29.2520,-10.0840,0 29.8730,-9.5080,0 30.2720,-8.9300,0 30.3940,-7.7670,0 30.4390,-6.6080,0 30.2260,-5.4510,0 29.9390,-4.2980,0 29.4440,-3.1520,0 29.4420,-3.1470,0 28.4150,-1.9970,0 28.0810,-1.7100,0 26.7770,-1.7640,0 26.4580,-1.9910,0 25.5050,-2.4760,0 24.7950,-3.1250,0 24.2650,-3.5500,0 23.5900,-4.2590,0 23.0520,-4.7630,0 22.3860,-5.3930,0 21.8600,-5.9610,0 21.2690,-6.5290,0 20.6860,-7.1790,0 20.3430,-7.6680,0 19.6850,-8.8120,0 19.5710,-9.1960,0 19.4140,-9.9650,0 19.4110,-11.1260,0 19.7820,-12.2940,0 19.7840,-12.2980,0 20.3790,-13.4830,0 21.0540,-14.6790,0 21.2990,-15.1610,0 21.7620,-15.8880,0 22.4460,-17.1100,0 22.9300,-17.9330,0 23.2080,-18.3480,0 24.2780,-19.6090,0 24.5610,-19.8830,0 25.8170,-20.9010,0
                     </coordinates>
                     </LinearRing>
                 </outerBoundaryIs>
               </Polygon>
            </Placemark>
         <Placemark>
               <name>-3.00dbW</name>
               <PlacemarkInfo gain="-3.00" n_point="319" ></PlacemarkInfo>
               <description>Contour -3.00 dB  </description>
               <Polygon>
                  <outerBoundaryIs>
                     <LinearRing>
                     <coordinates>
                        19.0950,-35.9680,0 19.5110,-36.1900,0 21.1970,-36.7120,0 22.7960,-36.7930,0 24.3150,-36.5570,0 25.3450,-36.1940,0 25.7370,-36.0140,0 27.0430,-35.1480,0 27.5600,-34.7360,0 28.2390,-34.0050,0 28.8900,-33.2820,0 29.3250,-32.5840,0 29.8570,-31.8470,0 30.2860,-30.8310,0 30.5320,-30.4320,0 31.0790,-29.0400,0 31.1350,-28.7480,0 31.8970,-27.6870,0 32.1760,-27.1840,0 33.6220,-26.7610,0 35.2680,-26.8080,0 37.0140,-26.9850,0 38.7910,-27.0910,0 40.6000,-27.1300,0 42.4230,-27.0620,0 43.8300,-26.8980,0 44.2340,-26.8410,0 45.9770,-26.3790,0 47.7160,-25.8010,0 47.8390,-25.7480,0 49.3600,-24.9540,0 50.1070,-24.5150,0 50.9240,-23.8650,0 51.6560,-23.2540,0 52.3140,-22.3730,0 52.5890,-21.9730,0 52.9640,-20.6750,0 53.0350,-19.5610,0 53.0430,-19.3770,0 52.8630,-18.0810,0 52.6350,-16.7960,0 52.4410,-15.5250,0 52.4460,-14.2730,0 52.5810,-13.4990,0 52.6080,-13.0350,0 52.8560,-11.8060,0 53.2110,-10.5860,0 53.5610,-9.3720,0 53.5610,-9.3710,0 53.6200,-8.1540,0 53.4820,-6.9370,0 53.1010,-5.7220,0 52.6860,-4.9420,0 52.3320,-4.5090,0 51.0460,-3.2980,0 50.3200,-2.6410,0 49.2200,-2.0930,0 48.2560,-1.3250,0 47.4440,-0.8990,0 47.0000,0.2840,0 47.6170,1.4680,0 48.2840,2.0620,0 48.6680,2.6580,0 49.7180,3.8550,0 50.4960,4.6090,0 50.8120,5.0610,0 51.6910,6.2730,0 52.4340,7.4920,0 52.9500,8.7160,0 53.2000,9.9410,0 53.1440,11.1670,0 52.7670,12.3900,0 52.4060,13.0090,0 51.8980,13.6040,0 50.7650,14.5600,0 50.3740,14.8000,0 48.9930,15.4590,0 47.6760,15.9580,0 47.2140,16.0980,0 45.4280,16.4930,0 43.6960,16.8370,0 42.5910,17.0340,0 42.0140,17.1430,0 40.3980,17.4870,0 38.9040,18.0890,0 38.7920,18.1570,0 37.7490,19.3790,0 37.6940,19.5420,0 37.4580,20.6390,0 37.4630,21.9250,0 37.5920,23.2330,0 37.7600,24.5620,0 37.7630,24.6060,0 37.8030,25.9060,0 37.7560,27.2690,0 37.6470,28.4530,0 37.6050,28.6510,0 37.0730,30.0400,0 36.8230,30.4700,0 35.9510,31.4240,0 35.6380,31.6750,0 34.2250,32.3680,0 32.8890,32.7390,0 32.7020,32.7790,0 31.0690,32.8730,0 29.4040,32.7940,0 27.7320,32.5880,0 26.9660,32.4690,0 26.0720,32.2920,0 24.4370,31.9340,0 22.8600,31.6450,0 21.3510,31.4970,0 19.9100,31.5440,0 18.5530,31.9430,0 18.0240,32.1730,0 17.2170,32.4460,0 15.8920,33.0390,0 14.9280,33.5820,0 14.5780,33.7540,0 13.2370,34.3730,0 11.9800,35.0470,0 11.8950,35.0860,0 10.5220,35.6900,0 9.1610,36.5720,0 9.1600,36.5720,0 7.7830,37.6550,0 7.3260,38.1660,0 6.4040,39.4050,0 6.1380,39.8260,0 5.0180,41.5540,0 4.9680,41.6240,0 3.5960,43.3600,0 3.4180,43.5390,0 1.7750,44.5220,0 0.1110,44.6610,0 -1.4730,43.7160,0 -1.6990,43.4100,0 -2.5450,41.6180,0 -2.8110,40.8260,0 -3.0400,39.8940,0 -3.6350,38.2360,0 -4.0080,37.6430,0 -4.5560,36.6420,0 -5.2640,35.7490,0 -5.7750,35.1040,0 -6.5280,34.3310,0 -7.1970,33.6160,0 -7.7750,33.0420,0 -8.6930,32.1710,0 -9.0130,31.8790,0 -10.2420,30.7960,0 -10.2760,30.7660,0 -11.4500,29.6940,0 -11.7540,29.3900,0 -12.6230,28.4760,0 -12.9950,28.0370,0 -13.7500,27.0680,0 -13.9800,26.7020,0 -14.7170,25.3840,0 -14.7910,25.2380,0 -15.2530,24.0800,0 -15.7840,23.1650,0 -15.9670,22.8010,0 -16.8680,21.6230,0 -16.9300,21.5450,0 -18.0250,20.5170,0 -18.2600,20.3130,0 -19.2150,19.5770,0 -19.8680,19.1020,0 -20.4140,18.6520,0 -21.2950,17.8970,0 -21.5850,17.5030,0 -22.0650,16.6850,0 -22.2320,15.4690,0 -21.8010,14.2510,0 -21.0040,13.0370,0 -20.9250,12.9530,0 -19.8620,11.8300,0 -19.4490,11.4720,0 -18.4650,10.6320,0 -18.0590,10.3230,0 -16.8860,9.4440,0 -16.7210,9.3300,0 -15.4220,8.4460,0 -15.1480,8.2670,0 -14.1540,7.6330,0 -13.3430,7.1020,0 -12.9080,6.8090,0 -11.7200,5.9470,0 -11.6800,5.9170,0 -10.4720,4.9990,0 -10.2220,4.8020,0 -9.2790,4.0000,0 -8.8400,3.6630,0 -8.1030,3.0950,0 -7.2310,2.5290,0 -6.9420,2.3620,0 -5.7930,2.0080,0 -4.6520,1.9760,0 -3.5170,2.3180,0 -3.1240,2.5280,0 -2.3890,3.1780,0 -1.8740,3.6550,0 -1.2680,4.7030,0 -1.1980,4.7840,0 -0.7540,5.9160,0 -0.7830,7.0510,0 -1.2990,8.1930,0 -1.3010,8.1960,0 -1.9710,9.3400,0 -2.4710,9.7730,0 -3.1260,10.4970,0 -3.6500,10.9200,0 -4.3480,11.6630,0 -4.8500,12.1520,0 -5.3070,12.8370,0 -6.0980,13.9300,0 -6.1460,14.0210,0 -6.6270,15.2140,0 -6.9460,16.4160,0 -7.0070,17.6270,0 -6.7770,18.8470,0 -6.4280,19.7250,0 -6.1440,20.0770,0 -5.3000,21.3160,0 -5.2960,21.3180,0 -4.1360,22.5680,0 -4.1320,22.5720,0 -3.1360,23.8470,0 -2.9680,24.0610,0 -2.1210,25.1420,0 -1.7730,25.4680,0 -0.7190,26.4560,0 -0.5420,26.6030,0 0.7180,27.6010,0 0.9720,27.7940,0 2.0030,28.3970,0 3.3080,28.7650,0 4.6110,28.4680,0 5.3750,27.7840,0 5.8660,26.8820,0 6.0350,26.4360,0 6.3190,25.1110,0 5.7780,23.8130,0 5.7720,23.8070,0 4.5250,23.3760,0 3.2840,23.3230,0 2.0450,23.1660,0 0.8090,23.0100,0 -0.4160,22.5410,0 -0.4220,22.5380,0 -1.6330,22.0390,0 -2.3420,21.2870,0 -2.7790,20.0470,0 -2.7800,20.0410,0 -2.8620,18.8070,0 -2.7920,17.5860,0 -2.6690,17.1810,0 -2.4720,16.3770,0 -2.1500,15.1790,0 -1.7180,13.9920,0 -1.3850,13.2840,0 -1.1170,12.8140,0 -0.5290,11.6460,0 -0.1920,11.0650,0 0.3880,10.4860,0 0.9650,9.9080,0 1.7290,9.3330,0 2.1100,9.0460,0 3.2440,8.1870,0 3.2470,8.1850,0 4.3800,7.4280,0 4.9450,7.0490,0 5.5020,5.9150,0 5.5050,5.9120,0 6.4030,4.7840,0 6.6270,4.4080,0 6.9450,3.6570,0 7.3700,2.5320,0 7.7420,1.4080,0 7.7430,1.4060,0 8.2250,0.2840,0 8.6080,-0.8390,0 8.8740,-1.4950,0 9.0640,-1.9630,0 9.5510,-3.0890,0 10.0050,-4.2170,0 10.0290,-4.2790,0 10.5280,-5.3480,0 10.9570,-6.4820,0 11.2270,-7.4310,0 11.3040,-7.6210,0 11.6240,-8.7650,0 11.7250,-9.9150,0 11.6400,-11.0690,0 11.3620,-11.9390,0 11.3050,-12.2300,0 10.9630,-13.3990,0 10.6650,-14.5770,0 10.5510,-15.7660,0 10.6800,-16.9670,0 11.0560,-18.1820,0 11.5240,-19.4120,0 11.7790,-20.0330,0 12.0590,-20.6580,0 12.5310,-21.9200,0 12.8690,-23.1990,0 13.1130,-24.4970,0 13.3120,-25.8160,0 13.5190,-27.1590,0 13.7750,-28.5280,0 13.9100,-29.0400,0 14.1800,-29.9280,0 14.7810,-31.3630,0 15.6410,-32.8400,0 15.9260,-33.2340,0 16.9460,-34.3670,0 17.7470,-35.0880,0 19.0950,-35.9680,0
                     </coordinates>
                     </LinearRing>
                 </outerBoundaryIs>
               </Polygon>
            </Placemark>
         <Placemark>
               <name>-2.00dbW</name>
               <PlacemarkInfo gain="-2.00" n_point="37" ></PlacemarkInfo>
               <description>Contour -2.00 dB  </description>
               <Polygon>
                  <outerBoundaryIs>
                     <LinearRing>
                     <coordinates>
                        28.4860,20.3510,0 28.7790,20.2120,0 30.1330,19.8450,0 31.5720,19.7560,0 33.1710,20.1880,0 33.5920,20.5050,0 34.7820,21.8250,0 35.4400,23.1470,0 35.8250,24.4800,0 35.9970,25.8250,0 35.9430,27.1840,0 35.7740,28.0850,0 35.6040,28.5530,0 34.8220,29.8470,0 34.7420,29.9220,0 33.4940,30.6850,0 32.0330,31.1650,0 31.4330,31.2020,0 30.4350,31.2390,0 29.0570,31.0970,0 28.7820,31.0600,0 27.0800,30.5980,0 25.3810,29.9620,0 24.3300,29.4940,0 23.6400,28.9240,0 22.5980,28.0500,0 22.1870,26.6770,0 22.5970,25.3510,0 22.7950,25.1020,0 23.4950,24.0600,0 23.8910,23.6610,0 24.7560,22.7960,0 25.0530,22.5470,0 26.2490,21.5860,0 26.2930,21.5570,0 27.4900,20.8110,0 28.4860,20.3510,0
                     </coordinates>
                     </LinearRing>
                 </outerBoundaryIs>
               </Polygon>
            </Placemark>
         <Placemark>
               <name>-2.00dbW</name>
               <PlacemarkInfo gain="-2.00" n_point="43" ></PlacemarkInfo>
               <description>Contour -2.00 dB  </description>
               <Polygon>
                  <outerBoundaryIs>
                     <LinearRing>
                     <coordinates>
                        -9.9040,7.0820,0 -9.3460,6.7930,0 -8.1650,6.3600,0 -7.0100,6.6120,0 -6.8770,7.0680,0 -7.0370,7.6400,0 -7.1820,8.2140,0 -7.5840,9.3660,0 -8.0220,10.5250,0 -8.3400,11.2420,0 -8.5220,11.6920,0 -9.0040,12.8680,0 -9.5190,14.0550,0 -9.7220,14.5020,0 -10.0710,15.2520,0 -10.6280,16.4620,0 -11.2050,17.6850,0 -11.2050,17.6870,0 -12.0560,18.9280,0 -12.6650,19.6010,0 -13.9700,19.7940,0 -15.2170,19.4290,0 -16.0280,19.0090,0 -16.4390,18.8320,0 -17.6510,18.1240,0 -18.0870,17.8190,0 -18.8360,17.1750,0 -19.3530,16.6220,0 -19.8830,15.4180,0 -19.6440,14.2080,0 -18.8980,13.0000,0 -18.2370,12.2780,0 -17.7730,11.7980,0 -16.8500,11.0250,0 -16.3140,10.6050,0 -15.5260,10.0700,0 -14.5140,9.4200,0 -14.2410,9.2570,0 -12.9880,8.5900,0 -12.3020,8.2450,0 -11.7570,7.9590,0 -10.5430,7.3630,0 -9.9040,7.0820,0
                     </coordinates>
                     </LinearRing>
                 </outerBoundaryIs>
               </Polygon>
            </Placemark>
         <Placemark>
               <name>-2.00dbW</name>
               <PlacemarkInfo gain="-2.00" n_point="33" ></PlacemarkInfo>
               <description>Contour -2.00 dB  </description>
               <Polygon>
                  <outerBoundaryIs>
                     <LinearRing>
                     <coordinates>
                        41.9660,4.9720,0 43.0070,4.7790,0 44.7660,4.8840,0 45.1360,5.0020,0 46.6530,5.4490,0 48.0030,6.2240,0 48.7510,6.7210,0 49.4340,7.4430,0 50.2730,8.6640,0 50.6960,9.8850,0 50.6870,11.1050,0 50.2290,12.3190,0 50.0760,12.5160,0 48.9540,13.5150,0 48.4390,13.8360,0 46.7050,14.5720,0 46.3000,14.6700,0 44.9280,14.9280,0 43.1550,15.0500,0 41.3870,14.9430,0 39.7020,14.4790,0 39.5850,14.4180,0 38.2490,13.2280,0 37.7150,12.0130,0 37.5330,10.8160,0 37.6380,9.6300,0 37.9390,8.4540,0 38.3930,7.5590,0 38.5700,7.2850,0 39.5550,6.1220,0 39.8000,5.9010,0 41.3530,5.0970,0 41.9660,4.9720,0
                     </coordinates>
                     </LinearRing>
                 </outerBoundaryIs>
               </Polygon>
            </Placemark>
         <Placemark>
               <name>-2.00dbW</name>
               <PlacemarkInfo gain="-2.00" n_point="33" ></PlacemarkInfo>
               <description>Contour -2.00 dB  </description>
               <Polygon>
                  <outerBoundaryIs>
                     <LinearRing>
                     <coordinates>
                        38.9450,-23.9520,0 39.2700,-24.0880,0 41.2350,-24.5580,0 43.0850,-24.5750,0 44.8680,-24.3050,0 45.0340,-24.2450,0 46.4700,-23.5510,0 47.3000,-23.0280,0 47.9120,-22.3770,0 48.3540,-21.7610,0 48.7070,-20.4730,0 48.6780,-19.6960,0 48.6320,-19.1800,0 48.2580,-17.8890,0 47.7080,-16.6060,0 47.0280,-15.3320,0 46.8130,-14.9120,0 45.5990,-14.0500,0 44.5910,-13.7470,0 44.3000,-14.0110,0 43.0260,-14.5850,0 42.2530,-15.1760,0 41.5590,-15.5850,0 40.7190,-16.3610,0 40.1930,-16.7750,0 39.4520,-17.5610,0 38.9180,-18.1400,0 38.4240,-18.7770,0 37.7640,-19.7750,0 37.6110,-20.0110,0 37.2040,-21.2730,0 37.4400,-22.5750,0 38.9450,-23.9520,0
                     </coordinates>
                     </LinearRing>
                 </outerBoundaryIs>
               </Polygon>
            </Placemark>
         <Placemark>
               <name>-2.00dbW</name>
               <PlacemarkInfo gain="-2.00" n_point="47" ></PlacemarkInfo>
               <description>Contour -2.00 dB  </description>
               <Polygon>
                  <outerBoundaryIs>
                     <LinearRing>
                     <coordinates>
                        19.2810,-34.4300,0 20.7270,-34.9780,0 22.2850,-35.0800,0 23.7510,-34.7980,0 24.2230,-34.5970,0 25.0900,-34.0930,0 26.1870,-33.1660,0 26.3030,-33.0120,0 27.1190,-31.7300,0 27.2650,-31.1860,0 27.5090,-30.3050,0 27.5140,-28.8950,0 27.1190,-27.5000,0 26.2990,-26.1170,0 25.6780,-25.4290,0 25.0490,-24.7480,0 23.8990,-23.7020,0 23.5570,-23.3990,0 22.2870,-22.3460,0 21.9380,-22.0750,0 20.7560,-21.0680,0 20.3740,-20.7760,0 19.2840,-19.7950,0 18.8820,-19.5020,0 17.8690,-18.5610,0 17.3880,-18.2470,0 16.5150,-17.5040,0 15.2420,-17.0050,0 15.2400,-17.0040,0 15.2370,-17.0050,0 14.0870,-17.9640,0 14.0590,-18.2070,0 14.1330,-19.4360,0 14.2580,-20.6800,0 14.3860,-21.9410,0 14.4680,-23.2190,0 14.5560,-24.5160,0 14.6620,-25.8350,0 14.8240,-27.1780,0 15.0770,-28.5490,0 15.3070,-29.3340,0 15.5200,-29.9520,0 16.2320,-31.3920,0 17.2810,-32.8760,0 17.3030,-32.9000,0 19.0650,-34.3240,0 19.2810,-34.4300,0
                     </coordinates>
                     </LinearRing>
                 </outerBoundaryIs>
               </Polygon>
            </Placemark>
         <Placemark>
               <name>-1.00dbW</name>
               <PlacemarkInfo gain="-1.00" n_point="19" ></PlacemarkInfo>
               <description>Contour -1.00 dB  </description>
               <Polygon>
                  <outerBoundaryIs>
                     <LinearRing>
                     <coordinates>
                        28.0400,24.1930,0 28.2270,24.0440,0 29.5300,23.4130,0 31.0140,23.4020,0 32.5870,24.3520,0 33.2560,25.7050,0 33.2580,25.7100,0 33.2580,25.7110,0 33.0390,27.0560,0 32.4530,27.9790,0 31.8410,28.3830,0 31.1050,28.6610,0 29.5230,28.6000,0 28.4940,28.2480,0 27.7100,27.6290,0 27.0490,26.8270,0 26.9920,25.4810,0 27.0940,25.3250,0 28.0400,24.1930,0
                     </coordinates>
                     </LinearRing>
                 </outerBoundaryIs>
               </Polygon>
            </Placemark>
         <Placemark>
               <name>-1.00dbW</name>
               <PlacemarkInfo gain="-1.00" n_point="9" ></PlacemarkInfo>
               <description>Contour -1.00 dB  </description>
               <Polygon>
                  <outerBoundaryIs>
                     <LinearRing>
                     <coordinates>
                        -14.9860,12.9400,0 -14.4750,12.5640,0 -13.2370,12.5230,0 -13.0360,12.9140,0 -13.3390,13.8060,0 -13.5420,14.1060,0 -14.6750,14.7750,0 -15.6930,14.1390,0 -14.9860,12.9400,0
                     </coordinates>
                     </LinearRing>
                 </outerBoundaryIs>
               </Polygon>
            </Placemark>
         <Placemark>
               <name>-1.00dbW</name>
               <PlacemarkInfo gain="-1.00" n_point="9" ></PlacemarkInfo>
               <description>Contour -1.00 dB  </description>
               <Polygon>
                  <outerBoundaryIs>
                     <LinearRing>
                     <coordinates>
                        43.3500,9.7340,0 43.6360,9.5000,0 45.4330,9.5170,0 45.7760,9.7820,0 45.9960,10.9930,0 45.7930,11.2160,0 44.0270,11.4520,0 43.2370,10.9320,0 43.3500,9.7340,0
                     </coordinates>
                     </LinearRing>
                 </outerBoundaryIs>
               </Polygon>
            </Placemark>
         <Placemark>
               <name>-1.00dbW</name>
               <PlacemarkInfo gain="-1.00" n_point="23" ></PlacemarkInfo>
               <description>Contour -1.00 dB  </description>
               <Polygon>
                  <outerBoundaryIs>
                     <LinearRing>
                     <coordinates>
                        18.5010,-31.4440,0 20.1220,-32.4950,0 21.6410,-32.6820,0 23.0030,-32.1870,0 23.6860,-31.6000,0 24.1150,-30.7740,0 24.3100,-30.1870,0 24.1840,-28.7780,0 23.6070,-27.3830,0 23.1400,-26.7590,0 22.4670,-26.0010,0 21.4080,-25.0390,0 20.7920,-24.6340,0 19.8940,-24.0910,0 18.4980,-23.6320,0 17.2760,-24.2990,0 17.1650,-24.5590,0 16.8320,-25.8720,0 16.7840,-27.2130,0 17.0050,-28.5860,0 17.5600,-29.9940,0 18.4410,-31.3830,0 18.5010,-31.4440,0
                     </coordinates>
                     </LinearRing>
                 </outerBoundaryIs>
               </Polygon>
            </Placemark>
      </Folder>
   </Document>
</kml>
