<?xml version="1.0" encoding="UTF-8"?>
<kml xmlns = "http://www.opengis.net/kml/2.2">
   <Document>
      <name>KK11-VV_Downlink_MRS1KVTRC11403500.kml</name>
      <Folder>
         <Snippet maxLines="2"><![CDATA[Copyright <A href="http://www.satadsl.net">www.satadsl.com</A>]]></Snippet>
         <name>RASCOM-QAF1-MRS1KVTR</name>
         <FileInfo direction="Downlink" org_fn="KK11-VV_Downlink_MRS1KVTRC11403500.gxt" kml_fn="KK11-VV_Downlink_MRS1KVTRC11403500.kml" gxt_name="COHeader" format_ver="2" ntc_id="1" adm="USA" sat_name="RASCOM-QAF1" long_nom="2.85" n_diag="1" beam_id="MRS1KVTR" sat_beam_id="RASCOM-QAF1-MRS1KVTR" RefEIRP="50" RefDiameter="60" ></FileInfo>
         <description>Satellite : RASCOM-QAF1-MRS1KVTR, Downlink  </description>
			<Placemark>
				<name>50.6</name>
                <FileInfo direction="Downlink" org_fn="KK11-VV_Downlink_MRS1KVTRC11403500.gxt" kml_fn="KK11-VV_Downlink_MRS1KVTRC11403500.kml" gxt_name="COHeader" format_ver="2" ntc_id="1" adm="USA" sat_name="RASCOM-QAF1" long_nom="2.85" n_diag="1" beam_id="MRS1KVTR" sat_beam_id="RASCOM-QAF1-MRS1KVTR" RefEIRP="50" RefDiameter="60" ></FileInfo>
                <PlacemarkInfo gain="50.65" p="45.8290;-20.7400" ></PlacemarkInfo>
                <description> Maxpoint of Satellite : RASCOM-QAF1-MRS1KVTR, Downlink at 50.65 dB </description>
				<Point>
					<coordinates>45.8290,-20.7400,0</coordinates>
				</Point>
			</Placemark>
         <Placemark>
               <name>45.00dbW</name>
               <PlacemarkInfo gain="45.00" n_point="185" ></PlacemarkInfo>
               <description>Contour EIRP 45.00 dBW.  Min antenna size:120cm.</description>
               <Polygon>
                  <outerBoundaryIs>
                     <LinearRing>
                     <coordinates>
                        18.2790,-37.9460,0 19.0340,-38.2620,0 20.7240,-38.6340,0 22.3670,-38.7280,0 23.9570,-38.5870,0 25.4990,-38.2770,0 25.6740,-38.2270,0 26.9650,-37.7480,0 28.4120,-37.1670,0 29.2870,-36.7850,0 29.8250,-36.4970,0 31.1870,-35.7090,0 31.7670,-35.3400,0 32.4940,-34.7990,0 33.7380,-33.9120,0 33.7930,-33.8660,0 35.0570,-32.8490,0 35.5540,-32.5110,0 36.3630,-31.9050,0 37.7900,-31.1790,0 37.8210,-31.1680,0 39.3410,-30.6520,0 41.1070,-30.4560,0 43.0670,-30.4890,0 45.1720,-30.6100,0 47.3910,-30.7320,0 49.7010,-30.7970,0 52.0890,-30.7710,0 53.2330,-30.6890,0 54.4790,-30.5590,0 56.7920,-30.0890,0 58.3500,-29.5910,0 58.9710,-29.3260,0 60.5540,-28.3020,0 60.7930,-28.0920,0 61.8420,-26.9640,0 62.2490,-26.3980,0 62.8260,-25.6210,0 63.5890,-24.4410,0 63.7240,-24.2880,0 64.6130,-22.9670,0 64.9410,-22.2860,0 65.4360,-21.6540,0 66.0510,-20.3410,0 66.0920,-19.6570,0 66.2020,-19.0140,0 65.8930,-17.6790,0 65.2520,-16.3440,0 64.5070,-15.0190,0 63.8850,-13.7140,0 63.5800,-12.4310,0 63.6390,-11.4960,0 63.6240,-11.1680,0 63.9210,-9.9180,0 64.6070,-8.6810,0 65.4850,-7.5580,0 65.5600,-7.4500,0 66.3150,-6.2140,0 66.7400,-4.9730,0 66.2550,-3.7220,0 64.7610,-2.4710,0 64.2150,-2.1700,0 62.5130,-1.2280,0 60.8600,-0.2880,0 60.3810,0.0000,0 58.6840,1.2160,0 58.0860,1.9180,0 57.6220,2.4260,0 56.8810,3.6340,0 56.4330,4.8430,0 56.1790,6.0560,0 56.1350,6.5420,0 55.9860,7.2710,0 56.0300,8.4950,0 56.5750,9.7360,0 57.2090,10.4630,0 57.6690,11.0010,0 58.9320,12.2850,0 59.7990,13.5720,0 59.5730,14.8320,0 59.2460,15.0610,0 56.9880,16.0070,0 56.9880,16.0070,0 54.6330,16.3890,0 52.4230,16.7140,0 50.8800,17.0380,0 50.3860,17.1220,0 48.5140,17.6650,0 47.4780,18.1730,0 46.8240,18.4480,0 45.2700,19.3580,0 45.2550,19.3660,0 43.7200,20.2280,0 43.0890,20.5500,0 42.1880,20.9710,0 40.5700,21.3680,0 38.8050,21.2100,0 36.8740,20.3180,0 36.8590,20.3060,0 35.5180,18.9960,0 34.6410,17.8520,0 34.5620,17.7190,0 33.9940,16.4690,0 33.5490,15.2370,0 33.0970,14.0170,0 32.4500,12.8040,0 32.1180,12.3940,0 31.2970,11.5930,0 30.5380,11.1260,0 29.1030,10.5920,0 27.9050,10.3610,0 27.7300,10.3270,0 26.3920,10.1610,0 25.0850,10.0890,0 23.8050,10.1010,0 22.5460,10.1850,0 21.3810,10.2800,0 21.3040,10.2860,0 20.0670,10.2810,0 19.9720,10.2660,0 18.8300,10.0570,0 17.5920,9.5350,0 16.8550,9.0850,0 16.3590,8.7650,0 15.1430,7.9410,0 15.1220,7.9270,0 13.9470,7.2240,0 12.7730,6.7950,0 12.6990,6.7760,0 11.6100,6.4670,0 10.4560,6.1880,0 9.3080,5.8840,0 8.5490,5.6310,0 8.1650,5.4650,0 7.0250,4.8400,0 6.5070,4.4990,0 5.8910,3.9560,0 5.3390,3.3720,0 4.7600,2.5190,0 4.5990,2.2470,0 4.2290,1.1230,0 4.1490,0.0000,0 4.3990,-1.1230,0 4.7590,-1.9180,0 4.9530,-2.2470,0 5.8880,-3.3630,0 5.8980,-3.3720,0 7.0220,-4.3140,0 7.2450,-4.5000,0 8.1640,-5.3710,0 8.4230,-5.6310,0 9.2190,-6.7660,0 9.3250,-7.0400,0 9.6840,-7.9060,0 9.8630,-9.0500,0 9.7570,-10.1990,0 9.4190,-11.3540,0 9.4190,-11.3540,0 9.0230,-12.5160,0 8.5680,-13.6860,0 8.3390,-14.3980,0 8.2280,-14.8660,0 8.1030,-16.0560,0 8.1580,-17.2590,0 8.3660,-18.4750,0 8.4960,-18.9910,0 8.7270,-19.7050,0 9.1430,-20.9520,0 9.5480,-22.2150,0 9.9310,-23.4960,0 9.9620,-23.6010,0 10.3890,-24.7990,0 10.8530,-26.1240,0 11.3040,-27.4730,0 11.6400,-28.4840,0 11.7790,-28.8490,0 12.3490,-30.2560,0 12.9340,-31.6970,0 13.5600,-33.1430,0 13.5770,-33.1740,0 14.5010,-34.6980,0 15.4690,-35.9610,0 15.7930,-36.2780,0 17.2760,-37.4170,0 18.2790,-37.9460,0
                     </coordinates>
                     </LinearRing>
                 </outerBoundaryIs>
               </Polygon>
            </Placemark>
         <Placemark>
               <name>46.00dbW</name>
               <PlacemarkInfo gain="46.00" n_point="175" ></PlacemarkInfo>
               <description>Contour EIRP 46.00 dBW.  Min antenna size:60cm.</description>
               <Polygon>
                  <outerBoundaryIs>
                     <LinearRing>
                     <coordinates>
                        18.0200,-36.3360,0 18.6330,-36.6640,0 20.3030,-37.1460,0 21.9150,-37.2840,0 23.4600,-37.1250,0 24.9530,-36.7740,0 25.4790,-36.6050,0 26.3840,-36.2320,0 27.7880,-35.6120,0 28.7070,-35.1860,0 29.1660,-34.9220,0 30.4900,-34.0940,0 30.9800,-33.7680,0 31.7700,-33.1590,0 32.8390,-32.3690,0 33.0420,-32.1970,0 34.3030,-31.2010,0 34.6090,-30.9970,0 35.6040,-30.2740,0 36.9820,-29.6860,0 37.0560,-29.6510,0 38.6590,-29.2960,0 40.4690,-29.2670,0 42.4600,-29.4460,0 44.5770,-29.6730,0 46.7850,-29.8620,0 49.0530,-29.9480,0 51.3580,-29.8970,0 53.6680,-29.6710,0 55.1720,-29.3690,0 55.8870,-29.1710,0 57.8860,-28.2900,0 58.1160,-28.1350,0 59.4930,-26.8860,0 59.5590,-26.8130,0 60.4370,-25.4700,0 60.6990,-24.9470,0 61.1390,-24.1310,0 61.7250,-22.8000,0 61.7540,-22.6690,0 62.1770,-21.4760,0 62.4240,-20.1530,0 62.3630,-19.6120,0 62.3570,-18.8280,0 62.0770,-17.5080,0 61.6930,-16.1960,0 61.2820,-14.8960,0 60.9700,-13.6120,0 60.9070,-12.5460,0 60.8840,-12.3460,0 60.9780,-11.0930,0 61.4100,-9.8550,0 62.1940,-8.6270,0 62.3090,-8.4520,0 62.8540,-7.3980,0 63.4610,-6.1680,0 63.7420,-4.9340,0 63.2110,-3.6930,0 61.8390,-2.4520,0 60.9250,-1.8440,0 59.9600,-1.2200,0 58.2290,0.0000,0 58.0240,0.1730,0 56.8020,1.2100,0 55.9620,2.4160,0 55.6290,3.1890,0 55.3930,3.6210,0 54.8870,4.8250,0 54.5390,6.0310,0 54.3310,7.2420,0 54.3090,8.4590,0 54.5820,9.6890,0 55.2890,10.9370,0 56.1120,12.2000,0 56.4490,13.4600,0 56.0360,14.0420,0 55.1440,14.6720,0 53.9970,15.0080,0 51.8840,15.4670,0 50.6270,15.7670,0 49.8870,15.9000,0 48.0410,16.4580,0 47.1780,16.8970,0 46.3670,17.2610,0 45.0460,18.0780,0 44.8120,18.2060,0 43.3020,19.1210,0 43.0170,19.2670,0 41.7630,19.8240,0 40.1510,20.1860,0 38.3850,19.9280,0 36.8860,19.0420,0 36.3920,18.6300,0 35.7220,17.7540,0 35.0530,16.4990,0 34.5930,15.2640,0 34.2010,14.0430,0 33.7090,12.8310,0 33.6000,12.6360,0 32.9910,11.6250,0 31.8850,10.6940,0 31.3520,10.4140,0 30.4110,10.0420,0 29.0100,9.7150,0 27.6530,9.5370,0 26.3280,9.4450,0 25.0280,9.4000,0 23.7510,9.4130,0 22.4940,9.4680,0 21.2510,9.5240,0 20.0160,9.4780,0 18.7830,9.2310,0 18.4530,9.0960,0 17.5490,8.6710,0 16.3240,7.9340,0 16.3240,7.9340,0 15.1150,7.1390,0 14.3890,6.7820,0 13.9290,6.5690,0 12.7580,6.1920,0 11.6000,5.9510,0 10.4480,5.7380,0 10.0080,5.6340,0 9.3020,5.4210,0 8.1590,4.9490,0 7.2830,4.5000,0 7.0220,4.3180,0 5.9280,3.3720,0 5.8880,3.3210,0 5.1970,2.2470,0 4.7720,1.1230,0 4.7580,0.9190,0 4.7080,0.0000,0 4.7580,-0.2200,0 5.0320,-1.1230,0 5.6980,-2.2470,0 5.8850,-2.4700,0 6.8540,-3.3720,0 7.0170,-3.5090,0 8.1550,-4.4440,0 8.2220,-4.5000,0 9.3040,-5.5870,0 9.3470,-5.6320,0 10.1050,-6.7680,0 10.4870,-7.8040,0 10.5300,-7.9080,0 10.7560,-9.0530,0 10.7100,-10.2030,0 10.5650,-10.8010,0 10.4480,-11.3580,0 10.0480,-12.5200,0 9.5430,-13.6900,0 9.4940,-13.8130,0 9.1880,-14.8690,0 9.0080,-16.0600,0 9.0430,-17.2630,0 9.2790,-18.4790,0 9.6490,-19.7100,0 9.7590,-20.0650,0 10.1200,-20.9580,0 10.6010,-22.2230,0 11.0270,-23.5060,0 11.2780,-24.3230,0 11.4580,-24.8090,0 11.9260,-26.1350,0 12.3690,-27.4860,0 12.8170,-28.8630,0 13.1080,-29.6700,0 13.3670,-30.2720,0 14.0420,-31.7150,0 14.8270,-33.1980,0 15.0470,-33.5490,0 16.0230,-34.7320,0 16.8770,-35.5550,0 18.0200,-36.3360,0
                     </coordinates>
                     </LinearRing>
                 </outerBoundaryIs>
               </Polygon>
            </Placemark>
         <Placemark>
               <name>48.00dbW</name>
               <PlacemarkInfo gain="48.00" n_point="13" ></PlacemarkInfo>
               <description>Contour EIRP 48.00 dBW.  Min antenna size:60cm.</description>
               <Polygon>
                  <outerBoundaryIs>
                     <LinearRing>
                     <coordinates>
                        38.4860,-6.9970,0 38.9130,-7.2960,0 39.0550,-7.0040,0 40.3530,-5.8450,0 40.3580,-5.8420,0 40.9800,-4.6780,0 41.4830,-3.5090,0 40.1460,-2.9160,0 39.2660,-3.4940,0 38.6340,-4.1890,0 38.4710,-4.6550,0 38.2930,-5.8220,0 38.4860,-6.9970,0
                     </coordinates>
                     </LinearRing>
                 </outerBoundaryIs>
               </Polygon>
            </Placemark>
         <Placemark>
               <name>48.00dbW</name>
               <PlacemarkInfo gain="48.00" n_point="195" ></PlacemarkInfo>
               <description>Contour EIRP 48.00 dBW.  Min antenna size:60cm.</description>
               <Polygon>
                  <outerBoundaryIs>
                     <LinearRing>
                     <coordinates>
                        18.9670,-31.8260,0 19.0420,-31.8750,0 20.5770,-32.2490,0 22.0200,-32.1260,0 22.6460,-31.9380,0 23.3720,-31.6130,0 24.7030,-31.0140,0 25.6590,-30.6010,0 26.0350,-30.4110,0 27.3320,-29.6780,0 28.0060,-29.2740,0 28.5860,-28.7970,0 29.4210,-27.9390,0 29.6670,-27.3480,0 30.0090,-26.5960,0 30.0300,-25.2530,0 29.3890,-23.9100,0 28.4910,-23.0510,0 27.9640,-22.5650,0 26.7680,-21.7280,0 26.0690,-21.2320,0 25.1420,-20.4860,0 24.4190,-19.9320,0 23.4990,-18.6690,0 23.4960,-18.6570,0 23.2000,-17.4360,0 23.2780,-17.1330,0 23.5500,-16.2280,0 24.1810,-15.0350,0 24.2910,-14.8660,0 24.8810,-13.8530,0 25.4140,-13.3220,0 26.0580,-12.6860,0 26.6220,-12.3670,0 27.8740,-11.6590,0 28.0840,-11.5390,0 29.1590,-11.0850,0 30.4730,-10.5880,0 31.1480,-10.4110,0 31.8320,-10.2700,0 33.2280,-10.0380,0 34.6550,-9.8150,0 36.0960,-9.4460,0 37.6130,-10.5260,0 37.6570,-11.7200,0 37.6340,-12.9200,0 37.4970,-14.1250,0 37.2430,-15.3350,0 37.1830,-15.4870,0 36.6830,-16.5460,0 36.1410,-17.6680,0 36.0710,-17.7650,0 35.3130,-18.9900,0 35.0990,-19.6450,0 34.7770,-20.2330,0 34.5460,-21.5000,0 34.7420,-22.8000,0 35.8090,-24.1540,0 36.6730,-24.6030,0 38.4160,-25.6050,0 38.8180,-25.7370,0 40.9530,-26.5290,0 43.1690,-27.2130,0 43.1700,-27.2130,0 45.3590,-27.5960,0 47.5700,-27.8010,0 49.7720,-27.7950,0 50.8290,-27.6610,0 51.8820,-27.4810,0 53.8000,-26.7660,0 54.2790,-26.4760,0 55.4080,-25.5330,0 55.6730,-25.1770,0 56.3490,-23.8500,0 56.4630,-23.4700,0 56.6720,-22.5190,0 56.7680,-21.1910,0 56.6270,-19.9110,0 56.6230,-19.8660,0 56.2170,-18.5440,0 55.7920,-17.2370,0 55.3780,-15.9450,0 55.0610,-14.6690,0 54.8600,-13.4080,0 54.8430,-12.1630,0 54.9660,-11.2920,0 55.0010,-10.9300,0 55.3000,-9.7060,0 55.8850,-8.4920,0 56.3790,-7.6350,0 56.5420,-7.2810,0 56.8320,-6.0650,0 56.6420,-4.8460,0 55.8870,-3.6250,0 55.6490,-3.3900,0 54.4190,-2.4070,0 53.1560,-1.1990,0 53.1550,-1.1990,0 52.0060,0.0000,0 51.3970,1.1940,0 51.0650,2.3880,0 51.0400,2.4730,0 50.5190,3.5790,0 49.9420,4.7690,0 49.3300,5.8980,0 49.2610,5.9570,0 48.0300,7.1360,0 47.6520,7.7760,0 46.8640,8.3150,0 46.8530,9.5170,0 46.9680,10.7280,0 46.4990,11.4240,0 46.0660,11.9200,0 44.9180,12.5540,0 44.0980,13.0850,0 43.3650,13.5230,0 42.3590,14.2580,0 41.8940,14.5880,0 40.3720,15.2620,0 38.5860,14.1530,0 38.3750,12.9370,0 38.5650,11.7400,0 38.9920,10.5530,0 39.2770,9.9640,0 39.8570,9.3800,0 40.3630,8.2030,0 38.9530,7.6450,0 37.3700,7.4140,0 35.8500,7.3530,0 34.3720,7.3040,0 32.9320,7.2850,0 31.5260,7.2870,0 30.1490,7.2840,0 28.7990,7.3020,0 27.4730,7.3300,0 26.1690,7.3660,0 24.8860,7.4170,0 23.6210,7.4800,0 22.3720,7.5490,0 21.1350,7.5570,0 19.9030,7.3970,0 18.6770,7.0270,0 18.1930,6.8010,0 17.4550,6.3850,0 16.2490,5.7150,0 16.1100,5.6520,0 15.0610,5.1740,0 13.8900,4.8980,0 12.7300,4.7710,0 11.5780,4.6720,0 10.4310,4.5280,0 10.3250,4.5030,0 9.2880,4.1710,0 8.1490,3.6270,0 7.7620,3.3730,0 7.0130,2.6300,0 6.7160,2.2470,0 6.2640,1.1230,0 6.2470,0.0000,0 6.7770,-1.1230,0 7.0090,-1.4070,0 7.8750,-2.2470,0 8.1420,-2.4620,0 9.2800,-3.3240,0 9.3510,-3.3740,0 10.4280,-4.2350,0 10.7460,-4.5040,0 11.5920,-5.5160,0 11.6920,-5.6370,0 12.3680,-6.7750,0 12.8000,-7.8420,0 12.8390,-7.9160,0 13.3090,-9.0640,0 13.6540,-10.2170,0 13.8740,-11.3760,0 13.8920,-12.5420,0 13.5590,-13.7140,0 13.0720,-14.4320,0 12.8510,-14.8910,0 12.2750,-16.0800,0 12.0720,-17.2820,0 12.4910,-18.5020,0 13.2070,-19.7400,0 13.4580,-20.1770,0 14.1280,-20.9970,0 14.8960,-22.1850,0 14.9720,-22.2710,0 15.8040,-23.5660,0 16.3280,-24.8770,0 16.6290,-26.2070,0 16.7380,-27.5580,0 16.9370,-28.9370,0 17.2270,-29.7410,0 17.5540,-30.3540,0 18.9670,-31.8260,0
                     </coordinates>
                     </LinearRing>
                 </outerBoundaryIs>
               </Polygon>
            </Placemark>
         <Placemark>
               <name>49.00dbW</name>
               <PlacemarkInfo gain="49.00" n_point="73" ></PlacemarkInfo>
               <description>Contour EIRP 49.00 dBW.  Min antenna size:60cm.</description>
               <Polygon>
                  <outerBoundaryIs>
                     <LinearRing>
                     <coordinates>
                        16.6110,-9.0830,0 17.5890,-9.4910,0 18.8010,-9.5510,0 20.0080,-9.3500,0 20.8720,-9.1170,0 21.2190,-9.0310,0 22.4470,-8.7850,0 23.6920,-8.5980,0 24.9570,-8.4750,0 26.2330,-8.2750,0 27.5250,-8.0280,0 27.5260,-8.0280,0 28.8320,-7.7390,0 30.1530,-7.3440,0 31.1490,-6.9090,0 31.4800,-6.7120,0 32.5290,-5.7630,0 32.7850,-5.3800,0 33.2100,-4.6120,0 33.6140,-3.4590,0 33.8720,-2.3060,0 34.0390,-1.3450,0 34.0800,-1.1530,0 34.2930,0.0000,0 34.4470,1.1540,0 34.2300,2.3070,0 34.0680,2.5370,0 33.3890,3.4570,0 32.7020,3.9150,0 31.3370,4.4930,0 30.9980,4.5950,0 29.9850,4.7910,0 28.6500,4.9270,0 27.3390,5.0730,0 26.0510,5.2880,0 24.7830,5.5360,0 24.0670,5.6950,0 23.5300,5.7540,0 22.2870,5.8340,0 21.0550,5.8270,0 19.9830,5.6700,0 19.8300,5.6300,0 18.6060,5.0170,0 17.5880,4.5220,0 17.3980,4.4120,0 16.2070,3.9170,0 15.0320,3.7200,0 13.8700,3.7220,0 12.7150,3.7580,0 11.5660,3.7460,0 10.4210,3.6150,0 9.4940,3.3740,0 9.2800,3.2870,0 8.1420,2.4960,0 7.8910,2.2470,0 7.3560,1.1230,0 7.4140,0.0000,0 8.1370,-1.1000,0 8.1570,-1.1230,0 9.2720,-2.0200,0 9.5980,-2.2480,0 10.4140,-2.7810,0 11.3280,-3.3760,0 11.5640,-3.5650,0 12.6610,-4.5080,0 12.7270,-4.5950,0 13.5640,-5.6430,0 13.9220,-6.2990,0 14.2910,-6.7820,0 15.0830,-7.9270,0 15.1460,-8.0220,0 16.3680,-8.9810,0 16.6110,-9.0830,0
                     </coordinates>
                     </LinearRing>
                 </outerBoundaryIs>
               </Polygon>
            </Placemark>
         <Placemark>
               <name>49.00dbW</name>
               <PlacemarkInfo gain="49.00" n_point="51" ></PlacemarkInfo>
               <description>Contour EIRP 49.00 dBW.  Min antenna size:60cm.</description>
               <Polygon>
                  <outerBoundaryIs>
                     <LinearRing>
                     <coordinates>
                        44.0190,-25.8850,0 44.4720,-26.0060,0 46.6750,-26.3430,0 48.8230,-26.3750,0 49.8620,-26.2110,0 50.8210,-25.9980,0 52.5670,-25.1120,0 52.6940,-25.0020,0 53.7010,-23.7010,0 53.8300,-23.4090,0 54.0510,-22.3790,0 54.0590,-21.0540,0 53.7750,-19.7310,0 53.2500,-18.4150,0 53.2490,-18.4130,0 52.6650,-17.1090,0 52.1290,-15.8220,0 51.6280,-14.5500,0 51.2230,-13.2930,0 50.9290,-12.0510,0 50.8030,-10.8210,0 50.7350,-9.6010,0 50.6180,-8.3860,0 49.8400,-7.1660,0 49.4890,-6.9420,0 48.5220,-7.1440,0 47.5710,-7.2890,0 46.1020,-8.3010,0 45.8780,-8.4380,0 44.8750,-9.4770,0 44.3350,-9.9230,0 43.7100,-10.6530,0 42.9170,-11.6110,0 42.7670,-11.8370,0 42.0350,-13.0300,0 41.6420,-13.5770,0 41.2860,-14.2270,0 40.4920,-15.4300,0 40.4350,-15.5050,0 39.8120,-16.6430,0 39.3220,-17.5310,0 39.1610,-17.8660,0 38.6350,-19.1030,0 38.4360,-20.0880,0 38.3700,-20.3620,0 38.4720,-21.6500,0 39.0920,-22.9770,0 39.6550,-23.5280,0 40.5980,-24.3670,0 42.1550,-25.1760,0 44.0190,-25.8850,0
                     </coordinates>
                     </LinearRing>
                 </outerBoundaryIs>
               </Polygon>
            </Placemark>
         <Placemark>
               <name>50.00dbW</name>
               <PlacemarkInfo gain="50.00" n_point="19" ></PlacemarkInfo>
               <description>Contour EIRP 50.00 dBW.  Min antenna size:60cm.</description>
               <Polygon>
                  <outerBoundaryIs>
                     <LinearRing>
                     <coordinates>
                        10.8610,-1.1240,0 11.5470,-1.4250,0 12.6950,-1.6880,0 13.8460,-1.5200,0 14.2710,-1.1260,0 14.6760,0.0000,0 14.3750,1.1260,0 13.8470,1.5530,0 12.6980,2.1810,0 12.4110,2.2510,0 11.5520,2.3480,0 10.5730,2.2490,0 10.4100,2.2140,0 9.2690,1.2640,0 9.1780,1.1240,0 9.2680,0.4820,0 9.3770,0.0000,0 10.4040,-0.8740,0 10.8610,-1.1240,0
                     </coordinates>
                     </LinearRing>
                 </outerBoundaryIs>
               </Polygon>
            </Placemark>
         <Placemark>
               <name>50.00dbW</name>
               <PlacemarkInfo gain="50.00" n_point="19" ></PlacemarkInfo>
               <description>Contour EIRP 50.00 dBW.  Min antenna size:60cm.</description>
               <Polygon>
                  <outerBoundaryIs>
                     <LinearRing>
                     <coordinates>
                        23.3430,-4.5480,0 23.4860,-4.6760,0 24.7700,-5.2520,0 26.0490,-5.2500,0 27.3330,-4.9530,0 28.1600,-4.5760,0 28.6170,-4.1960,0 29.2530,-3.4350,0 29.5170,-2.2900,0 29.0080,-1.1440,0 28.5310,-0.7860,0 27.2180,-0.5700,0 25.9280,-0.7920,0 24.9410,-1.1370,0 24.6610,-1.2710,0 23.4210,-2.2710,0 23.4200,-2.2710,0 22.9930,-3.4070,0 23.3430,-4.5480,0
                     </coordinates>
                     </LinearRing>
                 </outerBoundaryIs>
               </Polygon>
            </Placemark>
         <Placemark>
               <name>50.00dbW</name>
               <PlacemarkInfo gain="50.00" n_point="23" ></PlacemarkInfo>
               <description>Contour EIRP 50.00 dBW.  Min antenna size:60cm.</description>
               <Polygon>
                  <outerBoundaryIs>
                     <LinearRing>
                     <coordinates>
                        42.9580,-23.1500,0 43.1390,-23.2660,0 45.5170,-24.2250,0 47.6300,-24.3760,0 49.4560,-23.8330,0 49.8850,-23.4950,0 50.7680,-22.2810,0 50.7950,-22.2110,0 50.7170,-20.8910,0 50.1940,-19.5680,0 49.1920,-18.2420,0 48.4460,-17.4980,0 47.2760,-16.9010,0 46.0670,-16.4210,0 44.3050,-16.7490,0 44.2510,-16.7920,0 42.8190,-17.7280,0 42.6140,-17.9870,0 41.8160,-19.2210,0 41.6830,-19.5970,0 41.5180,-20.4850,0 41.8350,-21.7900,0 42.9580,-23.1500,0
                     </coordinates>
                     </LinearRing>
                 </outerBoundaryIs>
               </Polygon>
            </Placemark>
      </Folder>
   </Document>
</kml>
