<?xml version="1.0" encoding="UTF-8"?>
<kml xmlns = "http://www.opengis.net/kml/2.2">
   <Document>
      <name>KK19-VV_Downlink_MRS1KVTRC10902500.kml</name>
      <Folder>
         <Snippet maxLines="2"><![CDATA[Copyright <A href="http://www.satadsl.net">www.satadsl.com</A>]]></Snippet>
         <name>RASCOM-QAF1-MRS1KVTR</name>
         <FileInfo direction="Downlink" org_fn="KK19-VV_Downlink_MRS1KVTRC10902500.gxt" kml_fn="KK19-VV_Downlink_MRS1KVTRC10902500.kml" gxt_name="COHeader" format_ver="2" ntc_id="1" adm="USA" sat_name="RASCOM-QAF1" long_nom="2.85" n_diag="1" beam_id="MRS1KVTR" sat_beam_id="RASCOM-QAF1-MRS1KVTR" RefEIRP="50" RefDiameter="60" ></FileInfo>
         <description>Satellite : RASCOM-QAF1-MRS1KVTR, Downlink  </description>
			<Placemark>
				<name>50.3</name>
                <FileInfo direction="Downlink" org_fn="KK19-VV_Downlink_MRS1KVTRC10902500.gxt" kml_fn="KK19-VV_Downlink_MRS1KVTRC10902500.kml" gxt_name="COHeader" format_ver="2" ntc_id="1" adm="USA" sat_name="RASCOM-QAF1" long_nom="2.85" n_diag="1" beam_id="MRS1KVTR" sat_beam_id="RASCOM-QAF1-MRS1KVTR" RefEIRP="50" RefDiameter="60" ></FileInfo>
                <PlacemarkInfo gain="50.28" p="24.6760;-2.2790" ></PlacemarkInfo>
                <description> Maxpoint of Satellite : RASCOM-QAF1-MRS1KVTR, Downlink at 50.28 dB </description>
				<Point>
					<coordinates>24.6760,-2.2790,0</coordinates>
				</Point>
			</Placemark>
         <Placemark>
               <name>45.00dbW</name>
               <PlacemarkInfo gain="45.00" n_point="181" ></PlacemarkInfo>
               <description>Contour EIRP 45.00 dBW.  Min antenna size:120cm.</description>
               <Polygon>
                  <outerBoundaryIs>
                     <LinearRing>
                     <coordinates>
                        17.4320,-37.9210,0 19.1050,-38.5340,0 20.7740,-38.8030,0 22.4050,-38.8420,0 23.9900,-38.6820,0 25.5320,-38.3630,0 25.9360,-38.2390,0 26.9980,-37.8290,0 28.4320,-37.2140,0 29.3710,-36.7890,0 29.8400,-36.5330,0 31.2020,-35.7420,0 31.8240,-35.3430,0 32.5110,-34.8360,0 33.6040,-33.9040,0 33.7450,-33.7620,0 34.9100,-32.5400,0 34.9740,-32.4800,0 36.1510,-31.4630,0 36.8320,-31.1140,0 37.5790,-30.7530,0 39.1920,-30.3650,0 40.9950,-30.2540,0 42.9900,-30.3590,0 45.1620,-30.5950,0 47.4800,-30.8560,0 49.8990,-31.0480,0 52.3880,-31.1140,0 54.9020,-31.0000,0 55.8700,-30.8770,0 57.3350,-30.6080,0 59.6370,-29.9180,0 60.0220,-29.7110,0 61.4590,-28.6610,0 61.7040,-28.3820,0 62.6470,-27.0180,0 62.7490,-26.8260,0 63.2690,-25.6500,0 63.7150,-24.5520,0 63.8610,-24.2960,0 64.4570,-22.9580,0 64.7960,-22.1530,0 65.2180,-21.6420,0 66.0030,-20.3380,0 66.1110,-19.6750,0 66.3280,-19.0210,0 66.0550,-17.6870,0 65.4510,-16.3520,0 64.8380,-15.0320,0 64.4060,-13.7320,0 64.2750,-12.6350,0 64.2390,-12.4520,0 64.2300,-11.1860,0 64.5240,-9.9340,0 65.1420,-8.6930,0 65.6390,-7.9520,0 65.9420,-7.4580,0 66.6400,-6.2190,0 66.9430,-4.9750,0 66.3850,-3.7230,0 64.8930,-2.4710,0 64.2030,-2.0560,0 62.8570,-1.2290,0 61.0630,0.0000,0 60.8590,0.1750,0 59.6470,1.2190,0 58.8380,2.4330,0 58.3490,3.6470,0 58.2770,3.8450,0 57.7880,4.8600,0 57.2460,6.0720,0 56.8310,7.2860,0 56.6970,8.5090,0 57.0390,9.7470,0 57.9740,11.0100,0 59.2220,12.2940,0 60.1920,13.5860,0 59.8560,14.8430,0 59.2850,15.1310,0 56.8920,15.8240,0 56.1490,15.9740,0 54.5270,16.1700,0 52.2940,16.4270,0 50.2360,16.7670,0 49.5460,16.9870,0 48.3740,17.3180,0 46.7920,18.1460,0 46.7190,18.1830,0 45.1970,19.2180,0 45.0210,19.3480,0 43.7500,20.3030,0 43.3170,20.5590,0 42.2520,21.1360,0 40.6370,21.5480,0 38.8540,21.3530,0 36.8830,20.3470,0 36.8360,20.3050,0 35.6940,19.0020,0 34.8940,17.7290,0 34.3380,16.4790,0 34.3110,16.4060,0 33.9180,15.2470,0 33.4210,14.0250,0 32.5610,12.8070,0 32.1240,12.4330,0 30.7050,11.5830,0 30.5900,11.5310,0 29.1510,11.0200,0 27.7660,10.6790,0 26.4160,10.4180,0 25.8270,10.3330,0 25.0950,10.2040,0 23.8050,10.1080,0 22.5420,10.1260,0 21.2970,10.1940,0 20.0630,10.2120,0 18.8320,10.0920,0 17.6050,9.7770,0 16.3810,9.2480,0 16.0990,9.0800,0 15.1620,8.4560,0 14.4110,7.9230,0 13.9590,7.6020,0 12.7760,6.9470,0 12.3340,6.7750,0 11.6100,6.4880,0 10.4550,6.1470,0 9.3080,5.8680,0 8.3620,5.6310,0 8.1660,5.5670,0 7.0270,5.0770,0 5.9700,4.4990,0 5.8930,4.4410,0 4.8130,3.3720,0 4.7620,3.2980,0 4.1560,2.2470,0 3.7920,1.1230,0 3.7860,0.0000,0 4.2110,-1.1230,0 4.7590,-1.9200,0 5.0320,-2.2470,0 5.8870,-3.0500,0 6.2610,-3.3720,0 7.0200,-4.0380,0 7.5070,-4.5000,0 8.1630,-5.3070,0 8.4020,-5.6310,0 8.9980,-6.7660,0 9.3380,-7.7780,0 9.3860,-7.9050,0 9.6870,-9.0490,0 9.8150,-10.1990,0 9.7550,-11.3550,0 9.4630,-12.5180,0 9.4540,-12.5430,0 9.0370,-13.6880,0 8.5410,-14.8670,0 8.3690,-15.4120,0 8.2120,-16.0570,0 8.1150,-17.2590,0 8.2320,-18.4740,0 8.5090,-19.7040,0 8.5280,-19.7680,0 8.9540,-20.9500,0 9.4310,-22.2140,0 9.8710,-23.4960,0 9.9780,-23.8490,0 10.3230,-24.7980,0 10.7160,-26.1220,0 11.0650,-27.4700,0 11.4450,-28.8450,0 11.7820,-29.8960,0 11.9170,-30.2500,0 12.5370,-31.6910,0 13.2210,-33.1680,0 13.6970,-34.0870,0 14.0900,-34.6900,0 15.2930,-36.2660,0 15.5830,-36.5690,0 17.3860,-37.9000,0 17.4320,-37.9210,0
                     </coordinates>
                     </LinearRing>
                 </outerBoundaryIs>
               </Polygon>
            </Placemark>
         <Placemark>
               <name>47.00dbW</name>
               <PlacemarkInfo gain="47.00" n_point="167" ></PlacemarkInfo>
               <description>Contour EIRP 47.00 dBW.  Min antenna size:60cm.</description>
               <Polygon>
                  <outerBoundaryIs>
                     <LinearRing>
                     <coordinates>
                        17.1740,-33.2510,0 18.0110,-33.8930,0 19.6130,-34.4380,0 21.1340,-34.5040,0 22.6080,-34.3240,0 24.0380,-33.9570,0 25.4540,-33.5200,0 25.4540,-33.5200,0 26.8430,-32.9850,0 28.2330,-32.4370,0 28.7180,-32.1740,0 29.5410,-31.6410,0 30.4910,-30.7990,0 30.7360,-30.5290,0 31.7470,-29.4310,0 31.8800,-29.2740,0 33.0960,-28.1990,0 33.2760,-28.1020,0 34.4320,-27.4220,0 35.9820,-27.1460,0 37.7130,-27.2180,0 39.5950,-27.4900,0 41.6290,-27.9010,0 43.8370,-28.4250,0 45.2740,-28.7320,0 46.1400,-28.8770,0 48.4740,-29.1460,0 50.8090,-29.2030,0 51.6710,-29.1330,0 53.0580,-28.9610,0 55.1540,-28.3750,0 56.0060,-27.9930,0 57.0130,-27.3870,0 57.6600,-26.6890,0 58.3410,-25.6980,0 58.4980,-25.3490,0 58.8800,-23.9970,0 59.0330,-23.1380,0 59.1050,-22.6530,0 59.1550,-21.3150,0 59.1310,-19.9880,0 59.0520,-19.3740,0 59.0070,-18.6710,0 58.7700,-17.3630,0 58.5650,-16.0690,0 58.4530,-14.7910,0 58.4880,-13.5850,0 58.4890,-13.5280,0 58.5390,-12.2730,0 58.6840,-11.0290,0 58.9240,-9.7930,0 59.2770,-8.5640,0 59.2910,-8.4870,0 59.4550,-7.3340,0 59.5820,-6.1070,0 59.4030,-4.8790,0 58.7650,-3.6510,0 58.1720,-2.9500,0 57.6350,-2.4260,0 56.3740,-1.2090,0 55.5640,0.0000,0 55.4740,0.2130,0 55.0380,1.2050,0 54.6870,2.4080,0 54.3400,3.6110,0 53.9120,4.8140,0 53.5680,5.5780,0 53.2830,6.0130,0 52.4570,7.2100,0 51.8630,8.3710,0 51.8270,8.4100,0 51.4010,9.6160,0 51.6110,10.8420,0 51.6190,12.0700,0 50.9160,12.8260,0 50.2710,13.2640,0 49.0850,13.6400,0 47.2970,14.2950,0 47.1010,14.4020,0 45.6280,15.0820,0 44.9460,15.5700,0 44.1020,16.1190,0 43.2610,16.7580,0 42.6460,17.1940,0 41.2980,17.9400,0 41.1570,18.0130,0 39.5090,18.1720,0 38.7540,17.8520,0 37.5110,16.8400,0 37.3410,16.5660,0 36.8690,15.3250,0 36.5460,14.1000,0 36.2050,12.8860,0 35.5910,11.6760,0 34.8140,10.9670,0 34.0530,10.4600,0 33.2380,10.1170,0 31.7630,9.6810,0 30.3410,9.3900,0 29.3670,9.2130,0 28.9520,9.1170,0 27.5880,8.8070,0 26.2550,8.5560,0 24.9510,8.3940,0 23.6750,8.3450,0 22.4210,8.3800,0 21.1840,8.4500,0 19.9580,8.4670,0 18.7360,8.3390,0 17.5180,8.0000,0 17.3900,7.9400,0 16.3010,7.3260,0 15.4780,6.7870,0 15.0960,6.5130,0 13.9100,5.8040,0 13.4530,5.6420,0 12.7420,5.3850,0 11.5850,5.1210,0 10.4360,4.9230,0 9.2930,4.6980,0 8.5250,4.5010,0 8.1540,4.3700,0 7.0180,3.7800,0 6.4520,3.3720,0 5.8860,2.7480,0 5.5580,2.2470,0 5.2010,1.1230,0 5.2710,0.0000,0 5.8380,-1.1230,0 5.8830,-1.1760,0 6.9790,-2.2470,0 7.0120,-2.2750,0 8.1460,-3.1810,0 8.3680,-3.3730,0 9.2900,-4.3730,0 9.3960,-4.5020,0 10.1000,-5.6340,0 10.4610,-6.5090,0 10.5850,-6.7690,0 11.0400,-7.9100,0 11.4060,-9.0550,0 11.6790,-10.2070,0 11.7210,-10.5220,0 11.8770,-11.3650,0 11.8870,-12.5290,0 11.8110,-12.8940,0 11.6680,-13.7010,0 11.2610,-14.8800,0 10.7680,-16.0690,0 10.7680,-16.0690,0 10.5680,-17.2710,0 10.6370,-18.4870,0 10.9480,-19.7190,0 10.9650,-19.7670,0 11.5150,-20.9690,0 12.1610,-22.2370,0 12.4220,-22.8060,0 12.8420,-23.5250,0 13.4890,-24.8330,0 14.0100,-26.1630,0 14.0500,-26.3120,0 14.4640,-27.5160,0 14.7930,-28.8950,0 15.2420,-30.3050,0 15.9300,-31.7520,0 16.2530,-32.2450,0 17.1740,-33.2510,0
                     </coordinates>
                     </LinearRing>
                 </outerBoundaryIs>
               </Polygon>
            </Placemark>
         <Placemark>
               <name>48.00dbW</name>
               <PlacemarkInfo gain="48.00" n_point="203" ></PlacemarkInfo>
               <description>Contour EIRP 48.00 dBW.  Min antenna size:60cm.</description>
               <Polygon>
                  <outerBoundaryIs>
                     <LinearRing>
                     <coordinates>
                        19.6470,-29.0010,0 19.9370,-29.2870,0 21.4640,-29.7880,0 22.9090,-29.7950,0 24.3530,-29.7220,0 25.7830,-29.5310,0 26.7860,-29.2270,0 27.1510,-29.0730,0 28.3430,-27.9960,0 28.4150,-27.9000,0 29.0060,-26.5580,0 29.0940,-25.3860,0 29.1230,-25.2200,0 28.8690,-24.5490,0 28.6160,-23.8840,0 27.7580,-22.5580,0 26.6700,-21.2480,0 26.6690,-21.2470,0 25.8170,-19.9660,0 25.2340,-18.7070,0 24.6460,-17.4650,0 24.6450,-17.4630,0 24.0090,-16.2360,0 23.4430,-15.0230,0 22.9940,-13.8230,0 22.8180,-12.6370,0 23.0510,-11.4660,0 23.8490,-10.6320,0 24.2480,-10.3130,0 25.0740,-9.9590,0 26.3310,-9.4850,0 27.2600,-9.1860,0 27.6140,-9.1050,0 28.9340,-8.9240,0 30.2880,-8.8610,0 31.6810,-8.9310,0 33.1140,-9.0820,0 34.5770,-9.1920,0 36.0640,-9.3140,0 36.0790,-9.3170,0 36.7140,-10.5090,0 37.3780,-11.7140,0 38.0080,-12.9290,0 38.3560,-14.1470,0 38.3610,-15.3670,0 37.9940,-16.5860,0 37.6310,-17.3060,0 37.2080,-17.8010,0 36.4220,-18.7410,0 36.1020,-19.0160,0 35.2240,-20.0990,0 35.0910,-20.2430,0 34.5550,-21.5000,0 34.8900,-22.8050,0 36.4870,-24.0880,0 36.5910,-24.1870,0 38.5650,-25.1260,0 39.5990,-25.6620,0 40.7210,-26.0300,0 42.9510,-26.7950,0 44.6110,-27.2930,0 45.2690,-27.4420,0 47.5710,-27.8030,0 49.8340,-27.8830,0 51.4690,-27.7010,0 51.9860,-27.6190,0 53.9090,-26.9030,0 54.5700,-26.4940,0 55.5140,-25.6640,0 55.8140,-25.1860,0 56.3550,-23.8510,0 56.4430,-23.4430,0 56.5210,-22.5110,0 56.4870,-21.1760,0 56.3530,-19.8530,0 56.2370,-19.2970,0 56.0770,-18.5380,0 55.7620,-17.2360,0 55.5450,-15.9510,0 55.4300,-14.6820,0 55.4380,-13.4270,0 55.4580,-12.6470,0 55.4600,-12.1810,0 55.4690,-10.9420,0 55.4640,-9.7100,0 55.3690,-8.4810,0 55.0830,-7.2550,0 54.4400,-6.0300,0 53.4800,-4.9810,0 53.1720,-4.8050,0 51.1260,-3.5840,0 51.1250,-3.5820,0 49.0120,-2.7730,0 48.8060,-3.5650,0 47.2270,-4.6550,0 47.1410,-4.7390,0 45.4740,-5.6220,0 44.8290,-5.8990,0 43.7730,-6.3240,0 42.1120,-6.7780,0 40.9530,-7.0300,0 40.4990,-7.1480,0 38.9280,-7.4300,0 37.3650,-7.3730,0 37.1850,-6.9800,0 37.2660,-6.3950,0 37.3410,-5.8120,0 37.6340,-4.6480,0 38.1200,-3.4860,0 38.5620,-2.8620,0 39.0620,-2.3270,0 40.0990,-1.6650,0 41.0600,-1.1680,0 41.7150,-0.9190,0 43.4000,-0.5450,0 45.1590,-0.5890,0 47.0070,-1.1830,0 47.0080,-1.1840,0 48.9810,-2.2280,0 50.1150,-1.1910,0 50.9640,-0.3410,0 51.0680,0.0000,0 51.4380,1.1950,0 51.6020,2.3910,0 51.4740,3.5870,0 51.2030,4.3600,0 50.9420,4.7800,0 49.7540,5.9640,0 49.3870,6.2960,0 47.5250,7.0000,0 46.4060,7.1110,0 45.6840,7.2320,0 43.9200,7.4440,0 42.2430,7.7890,0 40.6020,7.9580,0 38.9980,8.0040,0 37.4250,7.9020,0 35.9060,7.8740,0 34.4310,7.8950,0 32.9910,7.9050,0 31.5730,7.8200,0 30.1760,7.6200,0 28.8050,7.3830,0 27.4610,7.1550,0 26.1440,6.9870,0 24.8550,6.9150,0 23.5880,6.9030,0 22.3400,6.9570,0 21.1090,7.0490,0 19.8900,7.1130,0 18.6760,7.0120,0 17.9370,6.8000,0 17.4640,6.6230,0 16.2550,5.9090,0 15.8630,5.6510,0 15.0590,5.0630,0 13.8830,4.5500,0 13.6780,4.5100,0 12.7230,4.3130,0 11.5710,4.1960,0 10.4260,4.0750,0 9.2850,3.8530,0 8.1480,3.5030,0 7.8820,3.3730,0 7.0130,2.7160,0 6.5920,2.2470,0 6.1360,1.1230,0 6.2780,0.0000,0 7.0090,-1.0670,0 7.0600,-1.1230,0 8.1400,-2.0080,0 8.4510,-2.2480,0 9.2780,-2.9230,0 9.7610,-3.3740,0 10.4280,-4.2650,0 10.6010,-4.5040,0 11.2320,-5.6360,0 11.6130,-6.6050,0 11.6990,-6.7730,0 12.2450,-7.9140,0 12.7360,-9.0610,0 12.8490,-9.3830,0 13.2850,-10.2150,0 13.7270,-11.3750,0 14.0080,-12.5430,0 14.1060,-13.7180,0 13.9390,-14.9000,0 13.3700,-16.0890,0 13.1880,-16.4070,0 12.8850,-17.2890,0 12.8790,-18.5060,0 13.3330,-19.7410,0 13.4390,-19.9380,0 14.2410,-20.9980,0 14.8570,-21.8020,0 15.2760,-22.2760,0 16.2420,-23.5730,0 16.3560,-23.7480,0 17.1350,-24.8920,0 17.8830,-26.2320,0 18.0930,-26.6840,0 18.6330,-27.5990,0 19.6470,-29.0010,0
                     </coordinates>
                     </LinearRing>
                 </outerBoundaryIs>
               </Polygon>
            </Placemark>
         <Placemark>
               <name>49.00dbW</name>
               <PlacemarkInfo gain="49.00" n_point="71" ></PlacemarkInfo>
               <description>Contour EIRP 49.00 dBW.  Min antenna size:60cm.</description>
               <Polygon>
                  <outerBoundaryIs>
                     <LinearRing>
                     <coordinates>
                        16.1500,-9.0800,0 16.3820,-9.2850,0 17.5870,-9.4500,0 18.1710,-9.0940,0 18.7600,-8.7960,0 19.9430,-8.1870,0 20.6950,-7.9630,0 21.1510,-7.8690,0 22.3810,-7.7100,0 23.6230,-7.5180,0 24.8760,-7.2540,0 26.1390,-6.9050,0 26.2980,-6.8610,0 27.4190,-6.5280,0 28.7180,-6.1320,0 29.8800,-5.7400,0 30.0350,-5.6730,0 31.3640,-4.9820,0 31.9200,-4.6020,0 32.7000,-3.8730,0 33.0580,-3.4550,0 33.8300,-2.3050,0 34.0480,-1.8260,0 34.3410,-1.1530,0 34.6140,0.0000,0 34.3950,1.1530,0 34.0460,1.7290,0 33.5500,2.3040,0 32.6600,2.9110,0 31.2850,3.3360,0 29.9320,3.4380,0 29.9250,3.4390,0 29.9120,3.4380,0 28.5860,3.3890,0 27.2680,3.2980,0 25.9710,3.2000,0 24.6950,3.1290,0 23.4380,3.0840,0 22.1960,3.0030,0 20.9710,3.0210,0 20.0080,3.3970,0 19.7680,3.4900,0 18.5770,3.9150,0 17.3810,3.6400,0 16.9460,3.3880,0 16.1890,2.8910,0 15.0150,2.4560,0 13.8540,2.4940,0 12.7020,2.6630,0 11.5560,2.7940,0 10.4140,2.8030,0 9.2750,2.5970,0 8.4430,2.2480,0 8.1400,1.9570,0 7.6560,1.1230,0 7.8590,0.0000,0 8.1360,-0.3080,0 9.0890,-1.1240,0 9.2690,-1.2510,0 10.4090,-2.0350,0 10.6950,-2.2490,0 11.5600,-3.1820,0 11.7350,-3.3770,0 12.4620,-4.5070,0 12.7360,-5.1010,0 13.1080,-5.6410,0 13.8150,-6.7800,0 13.9400,-6.9870,0 14.7800,-7.9250,0 15.1580,-8.3630,0 16.1500,-9.0800,0
                     </coordinates>
                     </LinearRing>
                 </outerBoundaryIs>
               </Polygon>
            </Placemark>
         <Placemark>
               <name>49.00dbW</name>
               <PlacemarkInfo gain="49.00" n_point="45" ></PlacemarkInfo>
               <description>Contour EIRP 49.00 dBW.  Min antenna size:60cm.</description>
               <Polygon>
                  <outerBoundaryIs>
                     <LinearRing>
                     <coordinates>
                        46.4860,-26.0190,0 46.4870,-26.0190,0 48.6980,-26.1780,0 48.8730,-26.1530,0 50.6770,-25.7840,0 52.2550,-24.9770,0 52.3940,-24.8640,0 53.2050,-23.6740,0 53.5020,-22.9220,0 53.5720,-22.3540,0 53.5030,-21.0260,0 53.2790,-19.7080,0 52.8990,-18.3980,0 52.5530,-17.1050,0 52.5180,-16.9210,0 52.2360,-15.8260,0 52.0080,-14.5630,0 51.8470,-13.3130,0 51.6160,-12.0700,0 51.2200,-10.8320,0 50.3750,-9.5930,0 49.9410,-9.2640,0 47.9110,-9.1530,0 47.0220,-9.5210,0 46.1610,-9.9220,0 44.6980,-10.6760,0 44.5120,-10.7980,0 43.3020,-11.8500,0 43.0500,-12.2160,0 42.7540,-13.0490,0 42.5980,-14.2650,0 42.2940,-15.4850,0 42.1870,-15.6670,0 41.8190,-16.7090,0 41.1720,-17.9350,0 41.1460,-17.9780,0 40.5260,-19.1720,0 40.1470,-20.1750,0 40.0390,-20.4260,0 39.9710,-21.7110,0 40.5720,-23.0420,0 41.6210,-23.9910,0 42.1870,-24.4420,0 44.1190,-25.3240,0 46.4860,-26.0190,0
                     </coordinates>
                     </LinearRing>
                 </outerBoundaryIs>
               </Polygon>
            </Placemark>
      </Folder>
   </Document>
</kml>
